<?xml version="1.0" encoding="utf-8"?>
<!-- Generator: Adobe Illustrator 20.1.0, SVG Export Plug-In . SVG Version: 6.00 Build 0)  -->
<svg version="1.1" id="Layer_1" xmlns="http://www.w3.org/2000/svg" xmlns:xlink="http://www.w3.org/1999/xlink" x="0px" y="0px"
	 width="100px" height="100px" viewBox="0 0 100 100" style="enable-background:new 0 0 100 100;" xml:space="preserve">
<style type="text/css">
	.st0{display:none;}
	.st1{display:inline;}
	.st2{fill:#FFFFFF;}
	.st3{display:inline;fill:#FFFFFF;}
	.st4{display:none;fill:#FFFFFF;}
</style>
<g class="st0">
	<g transform="translate(-129.000000, -557.000000)" class="st1">
		<g transform="translate(129.000000, 557.000000)">
			<path class="st2" d="M9.2,88.1h4.1c1.1,0,2-0.9,2-2c0-1.1-0.9-2-2-2H9.2c-1.1,0-2,0.9-2,2C7.2,87.2,8.1,88.1,9.2,88.1L9.2,88.1z"
				/>
			<path class="st2" d="M21.4,88.1h4.1c1.1,0,2-0.9,2-2c0-1.1-0.9-2-2-2h-4.1c-1.1,0-2,0.9-2,2C19.4,87.2,20.3,88.1,21.4,88.1
				L21.4,88.1z"/>
			<path class="st2" d="M13.2,51.4l-1.9-30.7c-0.1-1.1-1-2-2.2-1.9s-2,1-1.9,2.2l2,32.6c0.1,1.1,1,1.9,2,1.9h24.5c1.1,0,2-0.9,2-2
				s-0.9-2-2-2H13.2z"/>
			<path class="st2" d="M25.5,75.9h8.2c1.1,0,2,0.9,2,2c0,1.1-0.9,2-2,2H13.3c-1.1,0-2-0.9-2-2c0-1.1,0.9-2,2-2h8.2V61.6
				c0-1.1,0.9-2,2-2s2,0.9,2,2V75.9L25.5,75.9z"/>
			<path class="st2" d="M33.7,88.1h4.1c1.1,0,2-0.9,2-2c0-1.1-0.9-2-2-2h-4.1c-1.1,0-2,0.9-2,2C31.6,87.2,32.6,88.1,33.7,88.1
				L33.7,88.1z"/>
			<path class="st2" d="M66.3,45.3V84h-8.2c-1.1,0-2,0.9-2,2c0,1.1,0.9,2,2,2h20.4c1.1,0,2-0.9,2-2c0-1.1-0.9-2-2-2h-8.2V45.3h20.4
				c1.1,0,2-0.9,2-2s-0.9-2-2-2h-51c-1.1,0-2,0.9-2,2s0.9,2,2,2H66.3L66.3,45.3z"/>
			<path class="st2" d="M70.4,37.1c1,0,1.8-0.7,2-1.6l4.1-20.4c0.2-1.1-0.5-2.2-1.6-2.4c-1.1-0.2-2.2,0.5-2.4,1.6L68.6,33H50
				c-1.1,0-2,0.9-2,2s0.9,2,2,2H70.4z"/>
		</g>
	</g>
</g>
<g class="st0">
	<path class="st3" d="M69.2,16.3c0.6-0.6,0.6-1.5,0-2.1l-4-4c-1-1-2.7-1-3.7,0L59.6,12c-0.6,0.6-0.6,1.5,0,2.1
		c0.6,0.6,1.5,0.6,2.1,0l1.6-1.6l3.7,3.7c0.3,0.3,0.7,0.4,1.1,0.4S68.9,16.5,69.2,16.3z"/>
	<path class="st3" d="M33.5,66.4c1,0,2-0.4,2.7-1.1l7.5-7.5c0.7-0.7,1.1-1.7,1.1-2.7s-0.4-1.9-1.1-2.7l-2.7-2.7L62.8,28l2.7,2.7
		c0.7,0.7,1.7,1.1,2.7,1.1c1,0,1.9-0.4,2.7-1.1l7.5-7.5c0.7-0.7,1.1-1.7,1.1-2.7s-0.4-2-1.1-2.7L66,5.6c-1.4-1.4-3.9-1.4-5.3,0
		l-7.5,7.5c-0.7,0.7-1.1,1.7-1.1,2.7c0,1,0.4,2,1.1,2.7l2.1,2.1L33.5,42.4l-2.1-2.1c-1.4-1.4-3.9-1.4-5.3,0l-7.5,7.5
		c-1.5,1.5-1.5,3.9,0,5.3l12.3,12.3C31.5,66,32.5,66.4,33.5,66.4z M55.1,15.7c0-0.1,0-0.3,0.2-0.5l7.5-7.5c0.2-0.2,0.4-0.2,0.5-0.2
		s0.3,0,0.5,0.2L76.1,20c0.2,0.2,0.2,0.4,0.2,0.5s0,0.3-0.2,0.5l-7.5,7.5c-0.3,0.3-0.8,0.3-1.1,0L55.3,16.3
		C55.1,16.1,55.1,15.8,55.1,15.7z M57.5,22.6l3.2,3.2L38.8,47.7l-3.2-3.2L57.5,22.6z M20.7,49.9l7.5-7.5c0.2-0.2,0.4-0.2,0.5-0.2
		s0.3,0,0.5,0.2l12.3,12.3c0.1,0.1,0.2,0.3,0.2,0.5c0,0.2-0.1,0.4-0.2,0.5L34,63.2c-0.2,0.2-0.4,0.2-0.5,0.2s-0.3,0-0.5-0.2
		L20.7,50.9C20.4,50.6,20.4,50.1,20.7,49.9z"/>
	<path class="st3" d="M79.4,47L67.2,34.7c-1.4-1.4-3.9-1.4-5.3,0l-7.5,7.5c-1.5,1.5-1.5,3.9,0,5.3l2.1,2.1L34.7,71.5l-2.1-2.1
		c-1.4-1.4-3.9-1.4-5.3,0l-7.5,7.5c-0.7,0.7-1.1,1.7-1.1,2.7s0.4,1.9,1.1,2.7L32,94.4c0.7,0.7,1.7,1.1,2.7,1.1s2-0.4,2.7-1.1
		l7.5-7.5c1.5-1.5,1.5-3.9,0-5.3l-2.7-2.7L64,57.1l2.7,2.7c0.7,0.7,1.7,1.1,2.7,1.1c1,0,1.9-0.4,2.7-1.1l7.5-7.5
		c0.7-0.7,1.1-1.7,1.1-2.7C80.5,48.6,80.2,47.7,79.4,47z M42.7,84.8l-7.5,7.5c-0.2,0.2-0.4,0.2-0.5,0.2c-0.2,0-0.4-0.1-0.5-0.2
		L21.9,80c-0.2-0.2-0.2-0.4-0.2-0.5s0-0.3,0.2-0.5l7.5-7.5c0.2-0.2,0.4-0.2,0.5-0.2c0.1,0,0.3,0,0.5,0.2l3.2,3.2c0,0,0,0,0,0
		s0,0,0,0l5.3,5.3c0,0,0,0,0,0s0,0,0,0l3.7,3.7C43,84,43,84.5,42.7,84.8z M40,76.8l-3.2-3.2l21.9-21.9l3.2,3.2L40,76.8z M77.3,50.1
		l-7.5,7.5c-0.2,0.2-0.4,0.2-0.5,0.2s-0.3,0-0.5-0.2L65,53.9c0,0,0,0,0,0s0,0,0,0l-5.3-5.3l0,0h0l-3.2-3.2c-0.3-0.3-0.3-0.8,0-1.1
		l7.5-7.5c0.1-0.1,0.3-0.2,0.5-0.2c0.1,0,0.3,0,0.5,0.2l12.3,12.3c0.2,0.2,0.2,0.4,0.2,0.5C77.5,49.7,77.5,50,77.3,50.1z"/>
	<path class="st3" d="M66.4,39.2c-1-1-2.7-1-3.7,0l-1.9,1.9c-0.6,0.6-0.6,1.5,0,2.1c0.6,0.6,1.5,0.6,2.1,0l1.6-1.6l3.7,3.7
		c0.3,0.3,0.7,0.4,1.1,0.4s0.8-0.1,1.1-0.4c0.6-0.6,0.6-1.5,0-2.1L66.4,39.2z"/>
</g>
<path class="st4" d="M70.2,21.8l-19.7-6.4l0-0.5c0-0.3,0.1-0.6,0.4-0.9l1.3-1.3c1-1,1.5-2.2,1.5-3.6c0-2.8-2.3-5.1-5.1-5.1
	c-2.8,0-5.1,2.3-5.1,5.1c0,0.7,0.6,1.3,1.3,1.3s1.3-0.6,1.3-1.3c0-1.4,1.1-2.5,2.5-2.5C49.9,6.5,51,7.7,51,9c0,0.7-0.3,1.3-0.7,1.8
	L49,12.1c-0.7,0.7-1.1,1.7-1.1,2.7l0,0.5l-19.9,6.5c-1.6,0.5-2.7,2-2.7,3.7c0,2.1,1.7,3.8,3.8,3.8H69c2.1,0,3.8-1.7,3.8-3.8
	C72.9,23.8,71.8,22.3,70.2,21.8z M69,26.7H29.1c-0.7,0-1.2-0.5-1.2-1.2c0-0.5,0.3-1,0.9-1.2l20.3-6.6l20.3,6.6
	c0.5,0.2,0.8,0.6,0.8,1.2C70.2,26.1,69.7,26.7,69,26.7z"/>
<path class="st4" d="M74.8,54.4l-8.2-12.3c-0.3-0.4-0.7-0.6-1.1-0.6H32.7c-0.5,0-0.9,0.2-1.1,0.6l-8.2,12.3
	c-0.1,0.2-0.2,0.5-0.2,0.8v38.2c0,0.8,0.6,1.4,1.4,1.4h49.1c0.8,0,1.4-0.6,1.4-1.4V55.2C75,54.9,74.9,54.6,74.8,54.4z M50.4,44.2
	h14.3l6.4,9.6H50.4V44.2z M33.4,44.2h14.3v9.6H27.1L33.4,44.2z M72.3,92H25.9V56.5h46.4V92z M53.2,75.6H31.3v2.7h21.8V75.6z
	 M45,82.5H31.3v2.7H45V82.5z"/>
<g class="st0">
	<path class="st3" d="M70.6,74c-0.1,0-0.4,0-0.5,0l-6.5-19.4c7.8-5.1,13-14,13-24.1c0-1.3-1.1-2.4-2.4-2.4H21.5
		c-1.3,0-2.4,1.1-2.4,2.4c0,10,5.1,18.9,13,24.1L20.7,89.4c-0.4,1.2,0.2,2.6,1.6,3c1.3,0.4,2.6-0.2,3-1.6l6.2-19h33l1.2,3.7
		c-2.5,1.7-4.2,4.5-4.2,7.8c0,5.1,4.2,9.2,9.2,9.2c5.1,0,9.2-4.2,9.2-9.2C79.8,78.2,75.8,74,70.6,74z M24.1,33H72
		c-1.2,12.2-11.5,21.6-23.9,21.6C35.5,54.6,25.3,45.1,24.1,33z M33,67.1l3.3-10.2c3.6,1.6,7.4,2.4,11.6,2.4c4.1,0,8-0.8,11.6-2.4
		l3.3,10.2H33z M70.6,87.7c-2.5,0-4.4-2-4.4-4.4c0-2.5,2-4.4,4.4-4.4c2.5,0,4.4,2,4.4,4.4C75.1,85.7,73.2,87.7,70.6,87.7z"/>
	<path class="st3" d="M47.9,16.9c1.3,0,2.4-1.1,2.4-2.4V8.9c0-1.3-1.1-2.4-2.4-2.4c-1.3,0-2.4,1.1-2.4,2.4v5.6
		C45.6,15.8,46.6,16.9,47.9,16.9z"/>
	<path class="st3" d="M33.6,26.4c1.3,0,2.4-1.1,2.4-2.4v-5.6c0-1.3-1.1-2.4-2.4-2.4c-1.3,0-2.4,1.1-2.4,2.4v5.6
		C31.2,25.4,32.3,26.4,33.6,26.4z"/>
	<path class="st3" d="M62.3,26.4c1.3,0,2.4-1.1,2.4-2.4v-5.6c0-1.3-1.1-2.4-2.4-2.4c-1.3,0-2.4,1.1-2.4,2.4v5.6
		C59.9,25.4,61,26.4,62.3,26.4z"/>
</g>
<g class="st0">
	<path class="st3" d="M43.3,59.5c-5,0-9.5,2.9-11.5,7.6c-0.5,1.1,0,2.5,1.1,2.9c1.1,0.5,2.5,0,2.9-1.1C37,66,39.9,64,43.2,64
		c4.5,0,8.1,3.6,8.1,8.1c0,1.3,1.1,2.2,2.2,2.2c1.3,0,2.2-1.1,2.2-2.2C55.9,65.1,50.2,59.5,43.3,59.5z"/>
	<path class="st3" d="M20.8,85.3c3.2,0,5.4-0.7,6.8-1.4c1.3,1.3,2.9,2.2,4.7,2.2h21.3c1.3,0,2.2-1.1,2.2-2.2c0-1.3-1.1-2.2-2.2-2.2
		H32.4c-0.7,0-1.6-0.7-2.3-1.8c0,0,0-0.2-0.2-0.2c-0.5-1.1-0.9-2.5-0.9-4.1c0-7.9,7.7-27.7,18.6-36.9c0.9,2.2,2.9,4.9,7,7.6
		s7.9,3.4,10.4,3.4h0.2c-0.5,10.3-0.4,17.1,4.1,30.3c0.4,0.9,1.1,1.4,2.2,1.4h4.5c1.3,0,2.2-1.1,2.2-2.2S77,77,75.9,77h-2.9
		c-4-12.4-4-18.6-3.2-29.5l0.5-3.4c1.6,0,3.1-0.2,4.3-0.2c2.2,0,4-0.2,6.1-0.2c4,0,6.5-1.6,7.4-4.9c0.4-1.6,0.7-2.5,0.7-2.9
		c0.4-0.7,0.9-2,0.9-4c0-4.3-3.4-5-4.9-5.4c-0.5-0.2-1.1-0.2-1.4-0.4c-1.8-0.4-2.7-0.5-4-1.8c-0.4-0.4-0.7-0.7-1.1-1.1
		c-2.5-2.9-6.5-7-13.1-7c-9.5,0-13.5,6.5-14.6,10.4c-1.8,2-2.9,5.4-3.4,7c-13.9,9.5-22.5,32.8-22.5,42.1c0,1.6,0.4,3.2,0.7,4.7
		c-0.9,0.4-2.2,0.7-4.5,0.7c-2.5,0-8.3-1.1-8.3-11.5c0-4.3,0.9-8.1,2.7-11c0.7-1.1,0.4-2.5-0.7-3.1c-1.1-0.7-2.5-0.4-3.1,0.7
		c-2.2,3.8-3.2,8.3-3.2,13.3C8,81.1,14.7,85.3,20.8,85.3z M54.1,28.9c0.4-0.4,0.5-0.7,0.7-1.3c0-0.4,1.3-7.4,10.3-7.4
		c4.7,0,7.6,3.1,9.9,5.6c0.4,0.4,0.7,0.9,1.1,1.3c2.3,2.3,4.3,2.7,6.5,3.2c0.4,0,0.9,0.2,1.4,0.4c1.1,0.2,1.3,0.4,1.3,0.4
		s0,0.2,0,0.5c0,1.3-0.4,2-0.4,2l0,0c-0.2,0.2-0.2,0.4-0.4,0.7c0,0-0.2,0.4-0.9,3.2c-0.2,0.9-0.5,1.4-3.1,1.4c-2.2,0-4.1,0-6.3,0.2
		c-1.8,0-3.8,0.2-6.1,0.2c-1.1,0-2,0.9-2.2,1.8l-0.5,3.8c-1.6,0.2-4.7-0.2-8.5-2.7c-5.6-3.6-5.8-6.8-5.8-7.2
		C51.8,32.9,53.1,29.8,54.1,28.9z"/>
	<path class="st3" d="M63.5,86h4.9c1.3,0,2.2-1.1,2.2-2.2c0-1.3-1.1-2.2-2.2-2.2h-3.2c-1.1-3.6-3.8-13.1-4.7-24.1
		c-0.2-1.3-1.3-2.2-2.3-2c-1.3,0.2-2.2,1.3-2,2.3c1.1,14.4,5.2,26.1,5.4,26.7C61.7,85.5,62.4,86,63.5,86z"/>
	<path class="st3" d="M64.1,37c5,0,6.8-3.6,6.8-6.7c0-2.7-1.1-5-2-6.5c-0.7-1.1-2-1.4-3.1-0.7c-1.1,0.7-1.4,2-0.7,3.1
		c0.5,0.9,1.3,2.3,1.3,4c0,1.6-0.7,2.2-2.3,2.2c-3.1,0-3.6-2.9-3.8-3.4c-0.2-1.3-1.3-2.2-2.5-2c-1.3,0.2-2.2,1.3-2,2.5
		C56.3,32.3,58.5,37,64.1,37z"/>
</g>
<g transform="translate(0,-952.36218)" class="st0">
	<path class="st3" d="M49,962.4c-22.1,0-40,17.9-40,40c0,22.1,17.9,40,40,40c22.1,0,40-17.9,40-40C89,980.3,71.1,962.4,49,962.4z
		 M49,966c20.1,0,36.4,16.3,36.4,36.4c0,9.4-3.5,18-9.4,24.4L55.2,1006l16-16c0.7-0.7,0.7-1.9,0-2.6c0,0,0,0,0,0l-7.3-7.3
		c-0.4-0.4-0.9-0.6-1.5-0.5c-0.4,0-0.8,0.2-1.1,0.5l-16,16l-20.7-20.7C31.1,969.6,39.6,966,49,966z M22,978l20.8,20.8l-16,16
		c-0.7,0.7-0.7,1.9,0,2.6c0,0,0,0,0,0l7.3,7.3c0.7,0.7,1.8,0.7,2.6,0l16-16l20.8,20.8c-6.5,5.8-15,9.4-24.4,9.4
		c-20.1,0-36.4-16.3-36.4-36.4C12.6,993,16.2,984.4,22,978z M62.6,984l4.7,4.7l-14.7,14.7l-4.7-4.7L62.6,984z M25.2,988.7
		c-1,0.1-1.7,1-1.6,2c0,0.4,0.2,0.8,0.6,1.1c0.7,0.7,1.3,1.6,1.3,3.3c0,0.9-0.5,1.7-1.4,2.9c-0.9,1.2-2.2,2.9-2.2,5.3
		c0,2.3,1.3,3.9,2.4,4.9c0.7,0.7,1.9,0.7,2.6,0c0.7-0.7,0.7-1.9,0-2.6c0,0,0,0-0.1-0.1c-0.8-0.8-1.3-1.4-1.3-2.3
		c0-1.1,0.5-1.9,1.4-3.1s2.2-2.8,2.2-5.1c0-2.7-1.2-4.7-2.4-5.9C26.3,988.8,25.7,988.6,25.2,988.7z M45.4,1001.3l4.7,4.7l-14.7,14.7
		l-4.7-4.7L45.4,1001.3z"/>
</g>
<g class="st0">
	<g class="st1">
		<path class="st2" d="M87.8,71.7H80v-6.2h0.2l0-0.1c4-0.3,7.1-1.5,9.3-3.8c3-3.1,2.9-6.9,2.9-7.1l0-1.1l-1.1-0.3
			c-3.4-1.1-6.4-0.8-8.9,0.8c-1.9,1.2-3.1,3-4,4.8c-0.8-1.7-2.1-3.5-4-4.8c-2.5-1.6-5.5-1.9-8.9-0.8l-1.1,0.3l0,1.1
			c0,0.2-0.1,4,2.9,7.1c2.2,2.2,5.3,3.5,9.3,3.8l0,0.1h0.2v6.2h-9.9l-5.8-13c-0.2-0.6-0.8-0.9-1.4-0.9H49v-5.6h0.2l0-0.1
			c4-0.3,7.1-1.5,9.3-3.8c3-3.1,2.9-6.9,2.9-7.1l0-1.1l-1.1-0.3c-3.5-1.1-6.4-0.8-8.9,0.8c-1.9,1.2-3.1,3-4,4.8
			c-0.8-1.7-2.1-3.5-4-4.8C41,39,38,38.7,34.6,39.8l-1.1,0.3l0,1.1c0,0.2-0.1,4,2.9,7.1c2.2,2.2,5.3,3.5,9.3,3.8l0,0.1h0.2v5.6H36
			l-5.8-13c-0.2-0.6-0.8-0.9-1.4-0.9h-9.3v-6.2h0.2l0-0.1c4-0.3,7.1-1.5,9.3-3.8c3-3.1,2.9-6.9,2.9-7.1l0-1.1l-1.1-0.3
			c-3.4-1.1-6.5-0.8-8.9,0.8c-1.9,1.2-3.1,3-4,4.8c-0.8-1.7-2.1-3.5-4-4.8c-2.5-1.6-5.5-1.9-8.9-0.8L4,25.6l0,1.1
			c0,0.2-0.1,4,2.9,7.1c2.2,2.2,5.3,3.5,9.3,3.8l0,0.1h0.2v6.2H5.6v3.1h22.3l5.8,13c0.2,0.6,0.8,0.9,1.4,0.9h23.8l5.8,13
			c0.2,0.6,0.8,0.9,1.4,0.9h20.5L91,90.8l3-0.8l-4.7-17.1C89.1,72.2,88.5,71.7,87.8,71.7z M84.1,56.6c1-0.6,2.1-0.9,3.3-0.9
			c0.6,0,1.1,0.1,1.7,0.2c-0.2,1-0.7,2.4-1.9,3.7c-1.5,1.6-3.8,2.5-6.8,2.8C80.9,60.6,82,57.9,84.1,56.6z M69.7,59.6
			c-1.3-1.3-1.8-2.8-2-3.8c2-0.4,3.7-0.1,5.1,0.7c2.1,1.4,3.2,4,3.7,5.8C73.5,62.1,71.3,61.1,69.7,59.6z M53.1,43.2
			c1-0.6,2.1-0.9,3.3-0.9c0.6,0,1.1,0.1,1.7,0.2c-0.2,1-0.7,2.5-2,3.8c-1.5,1.6-3.8,2.5-6.8,2.8C49.9,47.2,51,44.5,53.1,43.2z
			 M38.7,46.2c-1.3-1.3-1.8-2.8-2-3.8c2-0.4,3.7-0.1,5.1,0.7c2.1,1.4,3.2,4,3.7,5.8C42.5,48.7,40.2,47.7,38.7,46.2z M23.6,28.6
			c1-0.6,2.1-0.9,3.3-0.9c0.6,0,1.1,0.1,1.7,0.2c-0.2,1-0.7,2.4-1.9,3.7c-1.5,1.6-3.8,2.5-6.8,2.8C20.4,32.6,21.5,30,23.6,28.6z
			 M9.2,31.6c-1.3-1.3-1.8-2.8-2-3.8c2-0.4,3.7-0.1,5.1,0.7c2.1,1.4,3.2,4,3.7,5.8C13,34.1,10.7,33.2,9.2,31.6z"/>
		<path class="st2" d="M47.4,75.8h0.2l0-0.1c3.5-0.3,6.2-1.4,8-3.3c2.7-2.8,2.6-6.2,2.6-6.3l0-1.1l-1.1-0.3c-3.1-1-5.8-0.7-8,0.7
			c-1.5,1-2.6,2.4-3.4,3.9c-0.7-1.4-1.8-2.9-3.4-3.9c-2.2-1.4-4.9-1.7-8-0.7l-1.1,0.3l0,1.1c0,0.1-0.1,3.6,2.6,6.3
			c1.9,1.9,4.6,3,8,3.3l0,0.1h0.2V81H35c-0.6,0-1.1,0.3-1.4,0.9l-3.5,6.9H19.5v-4.7h0.2l0-0.1c3.5-0.3,6.2-1.4,8-3.3
			c2.7-2.8,2.6-6.2,2.6-6.3l0-1.1L29.3,73c-3.1-1-5.8-0.7-8,0.7c-1.5,1-2.6,2.4-3.4,3.9c-0.7-1.4-1.8-2.9-3.4-3.9
			c-2.2-1.4-4.9-1.7-8-0.7l-1.1,0.3l0,1.1c0,0.1-0.1,3.6,2.6,6.3c1.9,1.9,4.6,3,8,3.3l0,0.1h0.2v4.7H5.6v3.1h25.6
			c0.6,0,1.1-0.3,1.4-0.9l3.5-6.9h23.9V81H47.4V75.8z M50.9,67.9c0.8-0.5,1.7-0.8,2.8-0.8c0.4,0,0.9,0,1.3,0.1c-0.2,0.8-0.6,2-1.6,3
			c-1.3,1.3-3.1,2.1-5.6,2.4C48.3,71.1,49.2,69,50.9,67.9z M38.4,70.3c-1-1-1.4-2.2-1.6-3c1.6-0.3,3-0.1,4.1,0.7
			c1.7,1.1,2.6,3.2,3.1,4.7C41.5,72.3,39.6,71.5,38.4,70.3z M23,76.3c0.8-0.5,1.7-0.8,2.8-0.8c0.4,0,0.9,0,1.3,0.1
			c-0.2,0.8-0.6,2-1.6,3c-1.3,1.3-3.1,2.1-5.6,2.4C20.4,79.4,21.3,77.4,23,76.3z M10.4,78.6c-1-1-1.4-2.2-1.6-3
			c1.6-0.3,3-0.1,4.1,0.7c1.7,1.1,2.6,3.2,3.1,4.7C13.6,80.7,11.7,79.9,10.4,78.6z"/>
		<path class="st2" d="M31.9,14.3h14c0.9,0,1.6-0.7,1.6-1.6c0-0.9-0.7-1.6-1.6-1.6h-14c-0.9,0-1.6,0.7-1.6,1.6
			C30.4,13.6,31.1,14.3,31.9,14.3z"/>
		<path class="st2" d="M76.9,42.2c0,0.9,0.7,1.6,1.6,1.6h14c0.9,0,1.6-0.7,1.6-1.6c0-0.9-0.7-1.6-1.6-1.6h-14
			C77.6,40.7,76.9,41.4,76.9,42.2z"/>
		<path class="st2" d="M52.1,23.6h6.6c1.4,5.3,6.2,9.3,12,9.3c6.8,0,12.4-5.6,12.4-12.4h6.2c0.9,0,1.6-0.7,1.6-1.6s-0.7-1.6-1.6-1.6
			h-6.2c-0.1,0-0.3,0-0.4,0.1c-1.4-5.4-6.2-9.4-12-9.4c-6.8,0-12.4,5.6-12.4,12.4h-6.2c-0.9,0-1.6,0.7-1.6,1.6
			C50.6,22.9,51.2,23.6,52.1,23.6z M70.7,11.2c5.1,0,9.3,4.2,9.3,9.3s-4.2,9.3-9.3,9.3c-4,0-7.5-2.6-8.8-6.2h7.2
			c0.9,0,1.6-0.7,1.6-1.6c0-0.9-0.7-1.6-1.6-1.6h-7.8C61.4,15.4,65.6,11.2,70.7,11.2z"/>
	</g>
</g>
<g class="st0">
	<path class="st3" d="M64.1,91.6H7.4V66.8h56.7V91.6z M10.9,88.1h49.6V70.4H10.9V88.1z"/>
	<path class="st3" d="M90.6,91.6H60.5V23.4h30.1V91.6z M64.1,88.1h23V27h-23V88.1z"/>
	<rect x="62.3" y="44.7" class="st3" width="26.6" height="3.5"/>
	<rect x="67.6" y="51.8" class="st3" width="3.5" height="7.1"/>
	<rect x="67.6" y="34" class="st3" width="3.5" height="7.1"/>
	<path class="st3" d="M46.3,51.8H25.1V8.4h21.3V51.8z M28.6,48.2h14.2V11.9H28.6V48.2z"/>
	<rect x="21.5" y="48.2" class="st3" width="28.4" height="3.5"/>
	<rect x="32.2" y="61.5" class="st3" width="7.1" height="3.5"/>
	<g class="st1">
		<rect x="48.1" y="68.6" class="st2" width="3.5" height="21.3"/>
		<rect x="19.8" y="68.6" class="st2" width="3.5" height="21.3"/>
	</g>
</g>
<path class="st4" d="M85,7.5H71.5l-7.4,16H43.9c-0.6-7.8-7.1-14-15.1-14c-8.4,0-15.2,6.8-15.2,15.2c0,7.5,5.6,14,13,15
	c0,0,0.1,0,0.1,0l2.6,50.4c0.1,2.2,2,3.9,4.1,3.9h33c2.2,0,4-1.8,4.1-3.9l3.2-62.5c0.1-1.1-0.3-2.1-1.1-2.9
	c-0.7-0.8-1.7-1.2-2.8-1.2h-2.5l6-13H85c0.8,0,1.5-0.7,1.5-1.5S85.8,7.5,85,7.5z M30.4,51l-1.2-23.6c0-0.2,0.1-0.5,0.2-0.7
	c0.2-0.2,0.4-0.3,0.6-0.3h32.8L51.5,51H30.4z M19.2,32.1c-1.3-1.7-2.2-3.8-2.5-6h8.5L19.2,32.1z M19.2,17.2l6,6h-8.5
	C17,20.9,17.9,18.9,19.2,17.2z M30.3,12.6c2.2,0.3,4.3,1.2,6,2.5l-6,6V12.6z M27.3,21.1l-6-6c1.7-1.3,3.7-2.2,6-2.5V21.1z
	 M32.1,23.5l6.3-6.3c1.4,1.8,2.3,3.9,2.5,6.3H32.1z M21.3,34.3l4.9-4.9l0.4,7.2C24.6,36.3,22.9,35.5,21.3,34.3z M67.6,89.9
	c0,0.6-0.6,1.1-1.1,1.1h-33c-0.6,0-1.1-0.5-1.1-1.1L30.5,54h39L67.6,89.9z M70,26.5c0.2,0,0.5,0.1,0.6,0.3s0.2,0.4,0.2,0.7L69.6,51
	H54.8l11.3-24.5H70z"/>
<g class="st0">
	<g class="st1">
		<g>
			<g>
				<path class="st2" d="M10.2,89.9c-0.6,0-1-0.4-1-1V50.3c0-0.6,0.4-1,1-1s1,0.4,1,1v38.6C11.2,89.5,10.8,89.9,10.2,89.9z"/>
			</g>
			<g>
				<path class="st2" d="M30.9,90.8c-0.6,0-1-0.4-1-1V73.9H10.2c-0.6,0-1-0.4-1-1s0.4-1,1-1h20.7c0.6,0,1,0.4,1,1v16.9
					C31.9,90.3,31.5,90.8,30.9,90.8z"/>
			</g>
			<g>
				<path class="st2" d="M25.7,73.9c-0.1,0-0.3,0-0.4-0.1c-0.5-0.2-0.7-0.8-0.5-1.3L30,61.6H11c-0.6,0-1-0.4-1-1s0.4-1,1-1h20.6
					c0.3,0,0.7,0.2,0.8,0.5c0.2,0.3,0.2,0.7,0.1,1l-5.9,12.3C26.4,73.6,26,73.9,25.7,73.9z"/>
			</g>
		</g>
		<g>
			<g>
				<path class="st2" d="M89.8,89.9c-0.6,0-1-0.4-1-1V50.3c0-0.6,0.4-1,1-1s1,0.4,1,1v38.6C90.8,89.5,90.3,89.9,89.8,89.9z"/>
			</g>
			<g>
				<path class="st2" d="M69.1,90.8c-0.6,0-1-0.4-1-1V72.9c0-0.6,0.4-1,1-1h20.7c0.6,0,1,0.4,1,1s-0.4,1-1,1H70.1v15.9
					C70.1,90.3,69.6,90.8,69.1,90.8z"/>
			</g>
			<g>
				<path class="st2" d="M74.3,73.9c-0.4,0-0.7-0.2-0.9-0.6L67.5,61c-0.1-0.3-0.1-0.7,0.1-1c0.2-0.3,0.5-0.5,0.8-0.5H89
					c0.6,0,1,0.4,1,1s-0.4,1-1,1H70l5.2,10.8c0.2,0.5,0,1.1-0.5,1.3C74.6,73.8,74.5,73.9,74.3,73.9z"/>
			</g>
		</g>
	</g>
	<g class="st1">
		<path class="st2" d="M68.8,55.9H31.2c-0.6,0-1-0.4-1-1s0.4-1,1-1h37.5c0.6,0,1,0.4,1,1S69.3,55.9,68.8,55.9z"/>
	</g>
	<g class="st1">
		<path class="st2" d="M50,89.9c-0.6,0-1-0.4-1-1V56.8c0-0.6,0.4-1,1-1s1,0.4,1,1v32.2C51,89.5,50.6,89.9,50,89.9z"/>
	</g>
	<g class="st1">
		<path class="st2" d="M56.2,89.9H43.8c-0.6,0-1-0.4-1-1s0.4-1,1-1h12.3c0.6,0,1,0.4,1,1S56.7,89.9,56.2,89.9z"/>
	</g>
	<g class="st1">
		<path class="st2" d="M50,51.3c-0.6,0-1-0.4-1-1V34.9c0-0.6,0.4-1,1-1s1,0.4,1,1v15.4C51,50.9,50.6,51.3,50,51.3z"/>
	</g>
	<g class="st1">
		<path class="st2" d="M81.9,35.1H18.1c-0.3,0-0.6-0.2-0.8-0.4c-0.2-0.3-0.2-0.6-0.1-0.9C21.3,22.7,34.9,15,50,15
			c15.1,0,28.7,7.7,32.9,18.7c0.1,0.3,0.1,0.7-0.1,0.9S82.3,35.1,81.9,35.1z M19.6,33.1h60.8C75.9,23.5,63.7,17,50,17
			C36.3,17,24.1,23.5,19.6,33.1z"/>
	</g>
	<g class="st1">
		<path class="st2" d="M50,15.3c-0.6,0-1-0.4-1-1v-4c0-0.6,0.4-1,1-1s1,0.4,1,1v4C51,14.8,50.6,15.3,50,15.3z"/>
	</g>
</g>
<g class="st0">
	<path class="st3" d="M82,7.6c-5.3,0-9.6,4.3-9.6,9.6v13.8H47.6V17.3c0-3.8,3.1-6.9,6.9-6.9c3.8,0,6.9,3.1,6.9,6.9v6.9h2.8v-6.9
		c0-5.3-4.3-9.6-9.6-9.6s-9.6,4.3-9.6,9.6v43.9c-1.7,0.4-5.1,2.7-5.1,2.7c-3.5,2.2-8.2,2.2-11.6,0c-4.4-2.8-10.2-2.7-14.6,0L6.9,68
		l1.5,2.3l6.6-4.1c3.5-2.2,8.2-2.2,11.6,0c4.4,2.7,10.2,2.7,14.6,0c0,0,6.2-5.8,13.8-1.4c4.2,2.4,9.6,7.7,19,2.8
		c3.5-1.9,8-6.5,15.6-2.5l1.5-2.3c-8.4-5.1-15.9,0.8-15.9,0.8V17.3c0-3.8,3.1-6.9,6.9-6.9s6.9,3.1,6.9,6.9v6.9h2.8v-6.9
		C91.7,12,87.4,7.6,82,7.6z M72.4,65.3C65,69.4,60,64.6,56.5,62.5c-2.7-1.6-5.8-2.3-8.9-1.9v-4.7h24.8L72.4,65.3L72.4,65.3z
		 M72.4,53.1H47.6v-8.3h24.8V53.1z M72.4,42.1H47.6v-8.3h24.8V42.1z"/>
	<path class="st3" d="M72.5,87.3c-7.3,4.8-16-2.8-16-2.8c-4.4-2.7-10.2-2.7-14.6,0c0,0-6.7,5.7-13.8,1.4c-4.4-2.7-10.2-2.7-14.6,0
		L7,90l1.5,2.3l6.6-4.1c3.5-2.2,8.1-2.1,11.6,0c9.2,5.4,16.8-1.4,16.8-1.4c3.5-2.2,8.2-2.2,11.6,0c0,0,9.6,8.8,19,2.8
		c0,0,8.2-7.1,15.6-2.5l1.5-2.3C81.6,79.1,72.5,87.3,72.5,87.3z"/>
	<path class="st3" d="M72.5,76.3c-7.3,4.8-16-2.8-16-2.8c-4.4-2.7-10.2-2.7-14.6,0c0,0-6.7,5.7-13.8,1.4c-4.4-2.7-10.2-2.7-14.6,0
		L7,79l1.5,2.3l6.6-4.1c3.5-2.2,8.1-2.1,11.6,0c9.2,5.4,16.8-1.4,16.8-1.4c3.5-2.2,8.2-2.2,11.6,0c0,0,9.6,8.8,19,2.8
		c0,0,8.2-7.1,15.6-2.5l1.5-2.3C81.6,68,72.5,76.3,72.5,76.3z"/>
	<rect x="6.3" y="47.6" class="st3" width="35.8" height="2.8"/>
	<rect x="77.9" y="47.6" class="st3" width="13.8" height="2.8"/>
</g>
<g>
	<g>
		<g>
			<path class="st2" d="M91.6,44.5c-0.5,0-1-0.2-1.3-0.7c-8.6-13.4-23-20.7-40.3-20.7S18.3,30.5,9.7,43.9c-0.4,0.7-1.4,0.9-2.1,0.4
				C7,43.9,6.8,43,7.3,42.3C16.5,28,31.7,20.1,50.1,20.1S83.6,28,92.9,42.3c0.4,0.7,0.2,1.6-0.4,2.1C92.1,44.5,91.8,44.5,91.6,44.5z
				"/>
			<path class="st2" d="M8.5,45.1c-0.4,0-0.8-0.1-1.1-0.4c-0.4-0.2-0.7-0.7-0.8-1.2c-0.1-0.5,0-1.1,0.3-1.6
				c9.3-14.4,24.6-22.4,43.2-22.4c18.5,0,33.8,8,43.2,22.4c0.5,0.9,0.3,2-0.5,2.7l-0.1,0.1C92.3,45,91.9,45,91.6,45
				c-0.7,0-1.3-0.3-1.7-0.9C81.4,30.9,67.2,23.6,50,23.6c-17.2,0-31.3,7.3-39.9,20.6c-0.2,0.4-0.7,0.7-1.2,0.8
				C8.8,45.1,8.7,45.1,8.5,45.1z M50.1,20.6c-18.2,0-33.3,7.8-42.4,22c-0.2,0.2-0.2,0.5-0.2,0.8c0.1,0.2,0.2,0.5,0.4,0.6
				c0.3,0.2,0.5,0.2,0.8,0.2C9,44,9.2,43.9,9.3,43.7C18,30.1,32.5,22.6,50,22.6c17.6,0,32,7.4,40.7,21c0.2,0.4,0.6,0.5,0.9,0.5
				c0.3,0,0.4,0,0.7-0.1c0.4-0.4,0.5-1,0.2-1.4C83.3,28.4,68.2,20.6,50.1,20.6z"/>
		</g>
	</g>
	<g>
		<g>
			<path class="st2" d="M21.6,54.9c-0.3,0-0.6-0.1-0.8-0.2c-0.7-0.4-0.9-1.4-0.4-2.1c6.4-9.9,16.9-15.3,29.6-15.3
				s23.3,5.5,29.6,15.3c0.4,0.7,0.2,1.6-0.4,2.1c-0.7,0.4-1.6,0.2-2.1-0.4C71.3,45.2,61.7,40.2,50,40.2s-21.3,5-27.2,14
				C22.5,54.7,22,54.9,21.6,54.9z"/>
			<path class="st2" d="M21.6,55.4c-0.5,0-0.9-0.2-1-0.2c-0.5-0.3-0.8-0.7-0.9-1.2c-0.1-0.5,0-1.1,0.3-1.6c6.4-10,17.1-15.6,30-15.6
				s23.6,5.5,30,15.6c0.5,0.9,0.3,2-0.5,2.7c-0.9,0.5-2.1,0.3-2.7-0.5C71,45.6,61.5,40.7,50,40.7c-11.5,0-21,4.9-26.8,13.8
				C22.9,55,22.3,55.4,21.6,55.4z M50,39.7c11.8,0,21.6,5.1,27.6,14.3c0.3,0.4,0.9,0.5,1.4,0.2c0.4-0.3,0.5-0.9,0.2-1.4
				C72.9,43.1,62.6,37.8,50,37.8s-22.9,5.4-29.2,15.1c-0.2,0.2-0.2,0.5-0.2,0.8c0.1,0.2,0.2,0.4,0.4,0.6c0.3,0.1,1,0.3,1.4-0.3
				C28.4,44.8,38.2,39.7,50,39.7z"/>
		</g>
	</g>
	<g>
		<g>
			<path class="st2" d="M66.1,65.4c-0.5,0-1-0.2-1.3-0.7c-3.2-5-8.5-7.6-14.9-7.6c-6.5,0-11.7,2.7-14.9,7.6
				c-0.4,0.7-1.4,0.9-2.1,0.4c-0.7-0.4-0.9-1.4-0.4-2.1c3.7-5.8,9.9-9,17.4-9c7.4,0,13.6,3.2,17.4,9c0.4,0.7,0.2,1.6-0.4,2.1
				C66.7,65.3,66.4,65.4,66.1,65.4z"/>
			<path class="st2" d="M66.1,65.9c-0.7,0-1.3-0.3-1.7-0.9c-3.1-4.8-8.2-7.4-14.4-7.4c-6.3,0-11.4,2.6-14.4,7.4
				c-0.2,0.4-0.7,0.7-1.2,0.8c-0.5,0.1-1.1,0-1.6-0.3c-0.4-0.2-0.7-0.7-0.8-1.2c-0.1-0.5,0-1.1,0.3-1.6c3.8-5.9,10.1-9.2,17.8-9.2
				c7.6,0,13.9,3.3,17.8,9.2c0.5,0.9,0.3,2-0.5,2.7l-0.1,0.1C66.8,65.8,66.5,65.9,66.1,65.9z M50,56.6c6.6,0,12,2.8,15.3,7.8
				c0.2,0.4,0.6,0.5,0.9,0.5c0.2,0,0.4-0.1,0.7-0.2c0.4-0.4,0.5-1,0.2-1.4c-3.7-5.6-9.8-8.7-17-8.7c-7.3,0-13.3,3.1-17,8.8
				c-0.2,0.2-0.2,0.5-0.2,0.8c0.1,0.2,0.2,0.4,0.4,0.6c0.3,0.2,0.6,0.2,0.8,0.2c0.2-0.1,0.4-0.2,0.6-0.4C38,59.4,43.4,56.6,50,56.6z
				"/>
		</g>
	</g>
	<g>
		<g>
			<path class="st2" d="M49.6,79.8c-3.9,0-7-3.1-7-7s3.1-7,7-7s7,3.1,7,7S53.4,79.8,49.6,79.8z M49.6,68.7c-2.2,0-4.1,1.9-4.1,4.1
				s1.9,4.1,4.1,4.1c2.2,0,4.1-1.9,4.1-4.1S51.9,68.7,49.6,68.7z"/>
			<path class="st2" d="M49.6,80.3c-4.2,0-7.5-3.4-7.5-7.5s3.4-7.5,7.5-7.5c4.2,0,7.5,3.4,7.5,7.5S53.8,80.3,49.6,80.3z M49.6,66.2
				c-3.6,0-6.6,2.9-6.6,6.6c0,3.6,2.9,6.6,6.6,6.6s6.5-2.9,6.5-6.6C56.2,69.2,53.2,66.2,49.6,66.2z M49.6,77.4
				c-2.5,0-4.6-2.1-4.6-4.6c0-2.5,2.1-4.6,4.6-4.6c2.5,0,4.6,2.1,4.6,4.6C54.2,75.3,52.1,77.4,49.6,77.4z M49.6,69.2
				c-2,0-3.6,1.6-3.6,3.6c0,2,1.6,3.6,3.6,3.6c2,0,3.6-1.6,3.6-3.6C53.2,70.8,51.6,69.2,49.6,69.2z"/>
		</g>
	</g>
</g>
</svg>
