<?xml version="1.0" encoding="utf-8"?>
<!-- Generator: Adobe Illustrator 20.1.0, SVG Export Plug-In . SVG Version: 6.00 Build 0)  -->
<svg version="1.1" id="Expanded" xmlns="http://www.w3.org/2000/svg" xmlns:xlink="http://www.w3.org/1999/xlink" x="0px" y="0px"
	 width="50px" height="50px" viewBox="0 0 50 50" style="enable-background:new 0 0 50 50;" xml:space="preserve">
<style type="text/css">
	.st0{fill:#FFFFFF;}
</style>
<g>
	<g>
		<g>
			<g>
				<polygon class="st0" points="35.3,48.7 33.7,48.7 33.7,30.1 24.8,36.3 15.9,30.1 15.9,48.1 14.4,48.1 14.4,27.3 24.8,34.4 
					35.3,27.3 				"/>
			</g>
			<g>
				<polygon class="st0" points="30.4,45.1 19.2,45.1 19.2,31.7 20.7,31.7 20.7,43.6 28.9,43.6 28.9,31.7 30.4,31.7 				"/>
			</g>
			<g>
				<rect x="24.1" y="34.9" class="st0" width="1.5" height="5.5"/>
			</g>
		</g>
		<g>
			<path class="st0" d="M44.5,45.1h-6.2v-24l-13.4,9.5l-13.9-9.5v24H5.6V10l15.2,10.9V26l4.2,2.9l4-2.8v-5.1L44.5,10V45.1z
				 M39.8,43.6H43V12.9l-12.6,8.7v3.3l9.4-6.7V43.6z M7.1,43.6h2.5V18.3l9.7,6.7v-3.3L7.1,12.9V43.6z"/>
		</g>
		<g>
			<path class="st0" d="M49.1,49.5H34.2l-4.8-4.4h-9.1l-4.8,4.4H0.9V1l24,16.7L49.1,1V49.5z M34.8,48h12.8V3.8l-22,15.1v10.8h-1.5
				V18.9L2.4,3.8V48h12.4l4.8-4.4h10.3L34.8,48z"/>
		</g>
	</g>
</g>
</svg>
