<?xml version="1.0" encoding="utf-8"?>
<!-- Generator: Adobe Illustrator 20.1.0, SVG Export Plug-In . SVG Version: 6.00 Build 0)  -->
<svg version="1.1" id="Layer_1" xmlns="http://www.w3.org/2000/svg" xmlns:xlink="http://www.w3.org/1999/xlink" x="0px" y="0px"
	 width="300px" height="60px" viewBox="0 0 300 60" style="enable-background:new 0 0 300 60;" xml:space="preserve">
<style type="text/css">
	.st0{fill:#FFFFFF;}
	.st1{opacity:0.2;}
	.st2{opacity:0.3;}
	.st3{opacity:0.5;}
	.st4{opacity:0.1;}
	.st5{opacity:0.7;}
</style>
<g>
	<g>
		<g>
			<path class="st0" d="M14.9,33.6c0,0-1.9-2-5.5-2c-3.7,0-6.3,2.1-6.3,4.6c0,3,3,4.4,6,5.8c3.3,1.6,6.6,3.1,6.6,6.9
				c0,2.6-2.6,5.1-6.7,5.1c-4.5,0-7-2.9-7-2.9l0.4-0.4c0,0,2.4,2.7,6.6,2.7c3.8,0,6.1-2.2,6.1-4.5c0-3.3-3.2-4.8-6.3-6.3
				c-3.1-1.5-6.4-3-6.4-6.4c0-2.8,2.8-5.2,6.9-5.2c3.8,0,5.9,2.2,5.9,2.2L14.9,33.6z"/>
			<path class="st0" d="M9.2,54.4c-4.6,0-7.2-2.8-7.3-3l-0.2-0.2l0.9-0.9l0.2,0.3c0,0,2.3,2.6,6.3,2.6c3.7,0,5.7-2.2,5.7-4.2
				c0-3-2.9-4.4-5.9-5.9l-0.2-0.1c-3.2-1.5-6.6-3.1-6.6-6.7c0-3.1,3.2-5.5,7.3-5.5c3.9,0,6.1,2.2,6.1,2.3l0.2,0.2l-0.9,0.9l-0.2-0.2
				c0,0-1.8-1.9-5.2-1.9c-3.3,0-5.9,1.9-5.9,4.2c0,2.7,2.7,4,5.6,5.4l0.6,0.3c3.2,1.6,6.5,3.2,6.5,7C16.2,51.6,13.6,54.4,9.2,54.4z
				 M12,43.8c2,1.2,3.6,2.7,3.6,5.1c0,0.3,0,0.6-0.1,0.9c0.1-0.3,0.1-0.6,0.1-0.9C15.6,46.5,14,45,12,43.8z M3.3,34.6
				c-0.2,0.5-0.4,1.1-0.4,1.6c0,0.5,0.1,1,0.2,1.4c-0.1-0.4-0.2-0.9-0.2-1.4C2.9,35.6,3,35.1,3.3,34.6z"/>
		</g>
		<g>
			<path class="st0" d="M36.7,53.7V31.4h5.6c5,0,7.9,1.7,7.9,5.5c0,3.7-2.8,5.6-7.9,5.6h-5v11.1H36.7z M37.3,32v9.9h5
				c4.7,0,7.2-1.7,7.2-5c0-3.4-2.7-4.9-7.2-4.9H37.3z"/>
			<path class="st0" d="M37.7,54h-1.3V31.1h5.9c6.8,0,8.2,3.2,8.2,5.9c0,3.8-2.9,5.9-8.2,5.9h-4.6V54z M37.7,41.6h4.6
				c3.1,0,6.9-0.8,6.9-4.7c0-3-2.3-4.6-6.9-4.6h-4.6V41.6z M47.9,33c1.5,1.1,1.9,2.6,1.9,3.9c0,0.9-0.2,1.8-0.7,2.6
				c0.4-0.7,0.7-1.5,0.7-2.6C49.8,35.2,49.2,33.9,47.9,33z"/>
		</g>
		<g>
			<path class="st0" d="M78.3,42.4c-0.5,0.1-1.1,0.1-1.8,0.1h-5.3v11.2h-0.6V31.4h5.9c5,0,7.9,1.7,7.9,5.5c0,3-1.9,4.9-5.4,5.4
				l6.7,11.3H85L78.3,42.4z M71.3,41.9h5.3c4.7,0,7.2-1.7,7.2-5c0-3.3-2.7-4.9-7.2-4.9h-5.3V41.9z"/>
			<path class="st0" d="M86.3,54h-1.5l-0.1-0.2l-6.6-11.1c-0.5,0.1-1,0.1-1.6,0.1h-5V54h-1.3V31.1h6.3c6.8,0,8.2,3.2,8.2,5.8
				c0,3-1.8,5-5.2,5.6L86.3,54z M71.6,41.5h5c4.6,0,6.9-1.6,6.9-4.6c0-3-2.3-4.6-6.9-4.6h-5V41.5z M82.2,33.1c1.5,1,1.9,2.5,1.9,3.9
				c0,1.3-0.4,2.8-1.9,3.9c1.2-0.9,1.9-2.2,1.9-3.9C84.1,35.2,83.5,33.9,82.2,33.1z"/>
		</g>
		<g>
			<path class="st0" d="M105.9,53.7V31.4h0.6v22.2H105.9z"/>
			<rect x="105.6" y="31.1" class="st0" width="1.3" height="22.9"/>
		</g>
		<g>
			<path class="st0" d="M144.7,52.8V31.4h0.7v22.2h-0.9L130,32.3h-0.1v21.3h-0.6V31.4h0.9L144.7,52.8L144.7,52.8z"/>
			<path class="st0" d="M145.7,54h-1.4l-0.1-0.1l-14-20.5V54H129V31.1h1.4l14.1,20.7V31.1h1.3V54z M144.7,53.3h0.4l0-21.6v21.3h-0.5
				L144.7,53.3z M129.6,32h0.5l0.1,0.1l-0.2-0.3h-0.4V32z"/>
		</g>
		<g>
			<path class="st0" d="M185.3,34.4c-1.7-1.7-4.2-2.8-7.5-2.8c-6.1,0-10.7,4.6-10.7,10.9c0,6.3,4.5,10.9,10.7,10.9
				c2.6,0,5.1-0.4,7.5-1.2v-9.7h0.6v10.1c-2.6,0.9-5.3,1.4-8.2,1.4c-6.6,0-11.4-4.9-11.4-11.5c0-6.6,4.9-11.5,11.4-11.5
				c3.5,0,6.1,1.1,7.9,2.9L185.3,34.4z"/>
			<path class="st0" d="M177.8,54.4c-6.8,0-11.7-5-11.7-11.8c0-6.7,5-11.8,11.7-11.8c3.4,0,6.1,1,8.1,3l0.2,0.2l-0.9,0.9l-0.2-0.2
				c-1.8-1.8-4.2-2.7-7.2-2.7c-6,0-10.4,4.4-10.4,10.6c0,6.1,4.4,10.6,10.4,10.6c2.5,0,4.9-0.4,7.2-1.1v-9.7h1.3v10.7l-0.2,0.1
				C183.5,53.9,180.7,54.4,177.8,54.4z M167.5,38.2c-0.5,1.3-0.8,2.8-0.8,4.3c0,1.6,0.3,3,0.8,4.3c-0.5-1.3-0.8-2.8-0.8-4.3
				C166.7,41,167,39.5,167.5,38.2z"/>
		</g>
		<g>
			<path class="st0" d="M218.3,33.6c0,0-1.9-2-5.5-2c-3.7,0-6.3,2.1-6.3,4.6c0,3,3,4.4,6,5.8c3.3,1.6,6.6,3.1,6.6,6.9
				c0,2.6-2.6,5.1-6.7,5.1c-4.5,0-7-2.9-7-2.9l0.4-0.4c0,0,2.4,2.7,6.6,2.7c3.8,0,6.1-2.2,6.1-4.5c0-3.3-3.2-4.8-6.3-6.3
				c-3.1-1.5-6.4-3-6.4-6.4c0-2.8,2.8-5.2,6.9-5.2c3.8,0,5.9,2.2,5.9,2.2L218.3,33.6z"/>
			<path class="st0" d="M212.5,54.4c-4.6,0-7.2-2.8-7.3-3l-0.2-0.2l0.9-0.9l0.2,0.3c0,0,2.3,2.6,6.3,2.6c3.7,0,5.7-2.2,5.7-4.2
				c0-3-2.9-4.4-5.9-5.9l-0.2-0.1c-3.1-1.5-6.6-3.1-6.6-6.7c0-3.1,3.2-5.5,7.2-5.5c3.9,0,6.1,2.2,6.1,2.3l0.2,0.2l-0.9,0.9l-0.2-0.2
				c0,0-1.8-1.9-5.2-1.9c-3.3,0-5.9,1.9-5.9,4.2c0,2.7,2.7,4,5.6,5.4l0.6,0.3c3.2,1.6,6.5,3.2,6.5,7
				C219.6,51.6,216.9,54.4,212.5,54.4z M215.4,43.9c2,1.2,3.5,2.7,3.5,5.1c0,0.3,0,0.6-0.1,0.9c0.1-0.3,0.1-0.6,0.1-0.9
				C218.9,46.5,217.4,45,215.4,43.9z M206.6,34.6c-0.2,0.5-0.4,1.1-0.4,1.6c0,0.5,0.1,1,0.2,1.4c-0.1-0.4-0.2-0.9-0.2-1.4
				C206.2,35.6,206.4,35.1,206.6,34.6z"/>
		</g>
	</g>
	<g>
		<g class="st1">
			<path class="st0" d="M294.3,18.5c0,1.4-1.2,2.6-2.6,2.6c-1.4,0-2.6-1.2-2.6-2.6c0-2-1.6-3.6-3.6-3.6c-2,0-3.6,1.6-3.6,3.6
				c0,1.4-1.2,2.6-2.6,2.6c-1.4,0-2.6-1.2-2.6-2.6c0-2-1.6-3.6-3.6-3.6c-2,0-3.6,1.6-3.6,3.6c0,1.4-1.2,2.6-2.6,2.6
				c-1.4,0-2.6-1.2-2.6-2.6c0-2-1.6-3.6-3.6-3.6c-2,0-3.6,1.6-3.6,3.6c0,1.4-1.2,2.6-2.6,2.6c-1.4,0-2.6-1.2-2.6-2.6
				c0-2-1.6-3.6-3.6-3.6c-2,0-3.6,1.6-3.6,3.6c0,1.4-1.2,2.6-2.6,2.6c-1.4,0-2.6-1.2-2.6-2.6c0-2-1.6-3.6-3.6-3.6
				c-0.1,0-0.1,0-0.2,0v1c0.1,0,0.1,0,0.2,0c1.4,0,2.6,1.2,2.6,2.6c0,2,1.6,3.6,3.6,3.6c2,0,3.6-1.6,3.6-3.6c0-1.4,1.2-2.6,2.6-2.6
				c1.4,0,2.6,1.2,2.6,2.6c0,2,1.6,3.6,3.6,3.6c2,0,3.6-1.6,3.6-3.6c0-1.4,1.2-2.6,2.6-2.6c1.4,0,2.6,1.2,2.6,2.6
				c0,2,1.6,3.6,3.6,3.6c2,0,3.6-1.6,3.6-3.6c0-1.4,1.2-2.6,2.6-2.6c1.4,0,2.6,1.2,2.6,2.6c0,2,1.6,3.6,3.6,3.6c2,0,3.6-1.6,3.6-3.6
				c0-1.4,1.2-2.6,2.6-2.6c1.4,0,2.6,1.2,2.6,2.6h0c0,2,1.6,3.6,3.6,3.6c0,0,0,0,0,0c0,0,0,0,0,0c2,0,3.6-1.6,3.6-3.6h0
				c0-1.4,1.2-2.6,2.6-2.6c0.2,0,0.4,0,0.6,0.1v-1c-0.2,0-0.4-0.1-0.6-0.1C295.9,14.9,294.3,16.5,294.3,18.5z"/>
			<path class="st0" d="M291.7,22.1L291.7,22.1c-2,0-3.6-1.6-3.6-3.6v0h0c0-1.4-1.2-2.5-2.6-2.5c-1.4,0-2.6,1.1-2.6,2.6
				c0,2-1.6,3.6-3.6,3.6c-2,0-3.6-1.6-3.6-3.6c0-1.4-1.1-2.6-2.6-2.6c-1.4,0-2.6,1.1-2.6,2.6c0,2-1.6,3.6-3.6,3.6s-3.6-1.6-3.6-3.6
				c0-1.4-1.1-2.6-2.6-2.6c-1.4,0-2.6,1.1-2.6,2.6c0,2-1.6,3.6-3.6,3.6c-2,0-3.6-1.6-3.6-3.6c0-1.4-1.1-2.6-2.6-2.6
				c-1.4,0-2.6,1.1-2.6,2.6c0,2-1.6,3.6-3.6,3.6c-2,0-3.6-1.6-3.6-3.6c0-1.4-1.1-2.6-2.6-2.6c0,0-0.1,0-0.1,0c0,0-0.1,0-0.1,0
				l-0.1,0v-1.1l0,0c0,0,0.1,0,0.1,0c0,0,0.1,0,0.1,0c2,0,3.6,1.6,3.6,3.6c0,1.4,1.1,2.6,2.6,2.6c1.4,0,2.6-1.1,2.6-2.6
				c0-2,1.6-3.6,3.6-3.6c2,0,3.6,1.6,3.6,3.6c0,1.4,1.1,2.6,2.6,2.6c1.4,0,2.6-1.1,2.6-2.6c0-2,1.6-3.6,3.6-3.6c2,0,3.6,1.6,3.6,3.6
				c0,1.4,1.1,2.6,2.6,2.6s2.6-1.1,2.6-2.6c0-2,1.6-3.6,3.6-3.6c2,0,3.6,1.6,3.6,3.6c0,1.4,1.1,2.6,2.6,2.6c1.4,0,2.6-1.1,2.6-2.6
				c0-2,1.6-3.6,3.6-3.6s3.6,1.6,3.6,3.6c0,1.4,1.1,2.5,2.5,2.6c1.4,0,2.5-1.2,2.5-2.6c0-2,1.6-3.6,3.6-3.6c0.2,0,0.4,0,0.6,0.1l0,0
				V16l-0.1,0c-0.2-0.1-0.4-0.1-0.6-0.1c-1.4,0-2.5,1.1-2.6,2.5h0v0C295.3,20.4,293.7,22.1,291.7,22.1z M291.6,22L291.6,22
				C291.7,22,291.7,22,291.6,22c2,0,3.5-1.6,3.6-3.5h0v0c0-1.5,1.2-2.6,2.6-2.6c0.2,0,0.4,0,0.6,0.1V15c-0.2,0-0.4-0.1-0.6-0.1
				c-1.9,0-3.5,1.6-3.5,3.5c0,1.5-1.2,2.6-2.6,2.6c-1.5,0-2.6-1.2-2.6-2.6c0-1.9-1.6-3.5-3.5-3.5c-1.9,0-3.5,1.6-3.5,3.5
				c0,1.5-1.2,2.6-2.6,2.6c-1.5,0-2.6-1.2-2.6-2.6c0-1.9-1.6-3.5-3.5-3.5c-1.9,0-3.5,1.6-3.5,3.5c0,1.5-1.2,2.6-2.6,2.6
				c-1.5,0-2.6-1.2-2.6-2.6c0-1.9-1.6-3.5-3.5-3.5c-1.9,0-3.5,1.6-3.5,3.5c0,1.5-1.2,2.6-2.6,2.6c-1.5,0-2.6-1.2-2.6-2.6
				c0-1.9-1.6-3.5-3.5-3.5c-1.9,0-3.5,1.6-3.5,3.5c0,1.5-1.2,2.6-2.6,2.6c-1.5,0-2.6-1.2-2.6-2.6c0-1.9-1.6-3.5-3.5-3.5
				c0,0-0.1,0-0.1,0c0,0,0,0,0,0v0.9c0,0,0,0,0,0c0,0,0.1,0,0.1,0c1.5,0,2.6,1.2,2.6,2.6c0,1.9,1.6,3.5,3.5,3.5
				c1.9,0,3.5-1.6,3.5-3.5c0-1.5,1.2-2.6,2.6-2.6s2.6,1.2,2.6,2.6c0,1.9,1.6,3.5,3.5,3.5c1.9,0,3.5-1.6,3.5-3.5
				c0-1.5,1.2-2.6,2.6-2.6c1.5,0,2.6,1.2,2.6,2.6c0,1.9,1.6,3.5,3.5,3.5s3.5-1.6,3.5-3.5c0-1.5,1.2-2.6,2.6-2.6
				c1.5,0,2.6,1.2,2.6,2.6c0,1.9,1.6,3.5,3.5,3.5c1.9,0,3.5-1.6,3.5-3.5c0-1.5,1.2-2.6,2.6-2.6s2.6,1.2,2.6,2.6v0h0
				C288.2,20.4,289.7,22,291.6,22L291.6,22z"/>
		</g>
		<g>
			<path class="st0" d="M298.5,47.3c-0.2,0-0.4-0.1-0.6-0.1c-2,0-3.6,1.6-3.6,3.6c0,1.4-1.2,2.6-2.6,2.6c-1.4,0-2.6-1.2-2.6-2.6
				c0-2-1.6-3.6-3.6-3.6c-2,0-3.6,1.6-3.6,3.6c0,1.4-1.2,2.6-2.6,2.6c-1.4,0-2.6-1.2-2.6-2.6c0-2-1.6-3.6-3.6-3.6
				c-2,0-3.6,1.6-3.6,3.6c0,1.4-1.2,2.6-2.6,2.6c-1.4,0-2.6-1.2-2.6-2.6c0-2-1.6-3.6-3.6-3.6c-2,0-3.6,1.6-3.6,3.6
				c0,1.4-1.2,2.6-2.6,2.6c-1.4,0-2.6-1.2-2.6-2.6c0-2-1.6-3.6-3.6-3.6c-2,0-3.6,1.6-3.6,3.6c0,1.4-1.2,2.6-2.6,2.6
				c-1.4,0-2.6-1.2-2.6-2.6c0-2-1.6-3.6-3.6-3.6c-0.1,0-0.1,0-0.2,0v1c0.1,0,0.1,0,0.2,0c1.4,0,2.6,1.2,2.6,2.6c0,2,1.6,3.6,3.6,3.6
				c2,0,3.6-1.6,3.6-3.6c0-1.4,1.2-2.6,2.6-2.6c1.4,0,2.6,1.2,2.6,2.6c0,2,1.6,3.6,3.6,3.6c2,0,3.6-1.6,3.6-3.6
				c0-1.4,1.2-2.6,2.6-2.6c1.4,0,2.6,1.2,2.6,2.6c0,2,1.6,3.6,3.6,3.6c2,0,3.6-1.6,3.6-3.6c0-1.4,1.2-2.6,2.6-2.6
				c1.4,0,2.6,1.2,2.6,2.6c0,2,1.6,3.6,3.6,3.6c2,0,3.6-1.6,3.6-3.6c0-1.4,1.2-2.6,2.6-2.6c1.4,0,2.6,1.2,2.6,2.6h0
				c0,2,1.6,3.6,3.6,3.6c0,0,0,0,0,0c0,0,0,0,0,0c2,0,3.6-1.6,3.6-3.6h0c0-1.4,1.2-2.6,2.6-2.6c0.2,0,0.4,0,0.6,0.1V47.3z"/>
			<path class="st0" d="M291.7,54.4L291.7,54.4c-2,0-3.6-1.6-3.6-3.6v0h0c0-1.4-1.2-2.5-2.6-2.5c-1.4,0-2.6,1.1-2.6,2.6
				c0,2-1.6,3.6-3.6,3.6c-2,0-3.6-1.6-3.6-3.6c0-1.4-1.1-2.6-2.6-2.6c-1.4,0-2.6,1.1-2.6,2.6c0,2-1.6,3.6-3.6,3.6s-3.6-1.6-3.6-3.6
				c0-1.4-1.1-2.6-2.6-2.6c-1.4,0-2.6,1.1-2.6,2.6c0,2-1.6,3.6-3.6,3.6c-2,0-3.6-1.6-3.6-3.6c0-1.4-1.1-2.6-2.6-2.6
				c-1.4,0-2.6,1.1-2.6,2.6c0,2-1.6,3.6-3.6,3.6c-2,0-3.6-1.6-3.6-3.6c0-1.4-1.1-2.6-2.6-2.6c0,0-0.1,0-0.1,0c0,0-0.1,0-0.1,0
				l-0.1,0v-1.1l0,0c0,0,0.1,0,0.1,0c0,0,0.1,0,0.1,0c2,0,3.6,1.6,3.6,3.6c0,1.4,1.1,2.6,2.6,2.6c1.4,0,2.6-1.1,2.6-2.6
				c0-2,1.6-3.6,3.6-3.6c2,0,3.6,1.6,3.6,3.6c0,1.4,1.1,2.6,2.6,2.6c1.4,0,2.6-1.1,2.6-2.6c0-2,1.6-3.6,3.6-3.6c2,0,3.6,1.6,3.6,3.6
				c0,1.4,1.1,2.6,2.6,2.6s2.6-1.1,2.6-2.6c0-2,1.6-3.6,3.6-3.6c2,0,3.6,1.6,3.6,3.6c0,1.4,1.1,2.6,2.6,2.6c1.4,0,2.6-1.1,2.6-2.6
				c0-2,1.6-3.6,3.6-3.6s3.6,1.6,3.6,3.6c0,1.4,1.1,2.5,2.5,2.6c1.4,0,2.5-1.2,2.5-2.6c0-2,1.6-3.6,3.6-3.6c0.2,0,0.4,0,0.6,0.1l0,0
				v1.1l-0.1,0c-0.2-0.1-0.4-0.1-0.6-0.1c-1.4,0-2.5,1.1-2.6,2.5h0v0C295.3,52.8,293.7,54.4,291.7,54.4z M288.1,50.8
				c0,1.9,1.6,3.5,3.5,3.5c0,0,0,0,0,0c1.9,0,3.5-1.6,3.5-3.5h0v0c0-1.5,1.2-2.6,2.6-2.6c0.2,0,0.4,0,0.6,0.1v-0.9
				c-0.2,0-0.4-0.1-0.6-0.1c-1.9,0-3.5,1.6-3.5,3.5c0,1.5-1.2,2.6-2.6,2.6c-1.5,0-2.6-1.2-2.6-2.6c0-1.9-1.6-3.5-3.5-3.5
				c-1.9,0-3.5,1.6-3.5,3.5c0,1.5-1.2,2.6-2.6,2.6c-1.5,0-2.6-1.2-2.6-2.6c0-1.9-1.6-3.5-3.5-3.5c-1.9,0-3.5,1.6-3.5,3.5
				c0,1.5-1.2,2.6-2.6,2.6c-1.5,0-2.6-1.2-2.6-2.6c0-1.9-1.6-3.5-3.5-3.5c-1.9,0-3.5,1.6-3.5,3.5c0,1.5-1.2,2.6-2.6,2.6
				c-1.5,0-2.6-1.2-2.6-2.6c0-1.9-1.6-3.5-3.5-3.5c-1.9,0-3.5,1.6-3.5,3.5c0,1.5-1.2,2.6-2.6,2.6c-1.5,0-2.6-1.2-2.6-2.6
				c0-1.9-1.6-3.5-3.5-3.5c0,0-0.1,0-0.1,0c0,0,0,0-0.1,0v0.9c0,0,0,0,0,0c0,0,0.1,0,0.1,0c1.5,0,2.6,1.2,2.6,2.6
				c0,1.9,1.6,3.5,3.5,3.5c1.9,0,3.5-1.6,3.5-3.5c0-1.5,1.2-2.6,2.6-2.6s2.6,1.2,2.6,2.6c0,1.9,1.6,3.5,3.5,3.5
				c1.9,0,3.5-1.6,3.5-3.5c0-1.5,1.2-2.6,2.6-2.6c1.5,0,2.6,1.2,2.6,2.6c0,1.9,1.6,3.5,3.5,3.5s3.5-1.6,3.5-3.5
				c0-1.5,1.2-2.6,2.6-2.6c1.5,0,2.6,1.2,2.6,2.6c0,1.9,1.6,3.5,3.5,3.5c1.9,0,3.5-1.6,3.5-3.5c0-1.5,1.2-2.6,2.6-2.6
				S288.2,49.3,288.1,50.8L288.1,50.8L288.1,50.8z"/>
		</g>
		<g class="st2">
			<path class="st0" d="M294.3,26.5c0,1.4-1.2,2.6-2.6,2.6c-1.4,0-2.6-1.2-2.6-2.6c0-2-1.6-3.6-3.6-3.6c-2,0-3.6,1.6-3.6,3.6
				c0,1.4-1.2,2.6-2.6,2.6c-1.4,0-2.6-1.2-2.6-2.6c0-2-1.6-3.6-3.6-3.6c-2,0-3.6,1.6-3.6,3.6c0,1.4-1.2,2.6-2.6,2.6
				c-1.4,0-2.6-1.2-2.6-2.6c0-2-1.6-3.6-3.6-3.6c-2,0-3.6,1.6-3.6,3.6c0,1.4-1.2,2.6-2.6,2.6c-1.4,0-2.6-1.2-2.6-2.6
				c0-2-1.6-3.6-3.6-3.6c-2,0-3.6,1.6-3.6,3.6c0,1.4-1.2,2.6-2.6,2.6c-1.4,0-2.6-1.2-2.6-2.6c0-2-1.6-3.6-3.6-3.6
				c-0.1,0-0.1,0-0.2,0v1c0.1,0,0.1,0,0.2,0c1.4,0,2.6,1.2,2.6,2.6c0,2,1.6,3.6,3.6,3.6c2,0,3.6-1.6,3.6-3.6c0-1.4,1.2-2.6,2.6-2.6
				c1.4,0,2.6,1.2,2.6,2.6c0,2,1.6,3.6,3.6,3.6c2,0,3.6-1.6,3.6-3.6c0-1.4,1.2-2.6,2.6-2.6c1.4,0,2.6,1.2,2.6,2.6
				c0,2,1.6,3.6,3.6,3.6c2,0,3.6-1.6,3.6-3.6c0-1.4,1.2-2.6,2.6-2.6c1.4,0,2.6,1.2,2.6,2.6c0,2,1.6,3.6,3.6,3.6c2,0,3.6-1.6,3.6-3.6
				c0-1.4,1.2-2.6,2.6-2.6c1.4,0,2.6,1.2,2.6,2.6h0c0,2,1.6,3.6,3.6,3.6c0,0,0,0,0,0c0,0,0,0,0,0c2,0,3.6-1.6,3.6-3.6h0
				c0-1.4,1.2-2.6,2.6-2.6c0.2,0,0.4,0,0.6,0.1v-1c-0.2,0-0.4-0.1-0.6-0.1C295.9,23,294.3,24.6,294.3,26.5z"/>
			<path class="st0" d="M291.7,30.2L291.7,30.2c-2,0-3.6-1.6-3.6-3.6v0h0c0-1.4-1.2-2.5-2.6-2.5c-1.4,0-2.6,1.1-2.6,2.6
				c0,2-1.6,3.6-3.6,3.6c-2,0-3.6-1.6-3.6-3.6c0-1.4-1.1-2.6-2.6-2.6c-1.4,0-2.6,1.1-2.6,2.6c0,2-1.6,3.6-3.6,3.6s-3.6-1.6-3.6-3.6
				c0-1.4-1.1-2.6-2.6-2.6c-1.4,0-2.6,1.1-2.6,2.6c0,2-1.6,3.6-3.6,3.6c-2,0-3.6-1.6-3.6-3.6c0-1.4-1.1-2.6-2.6-2.6
				c-1.4,0-2.6,1.1-2.6,2.6c0,2-1.6,3.6-3.6,3.6c-2,0-3.6-1.6-3.6-3.6c0-1.4-1.1-2.6-2.6-2.6c0,0-0.1,0-0.1,0c0,0-0.1,0-0.1,0
				l-0.1,0v-1.1l0,0c0,0,0.1,0,0.1,0c0,0,0.1,0,0.1,0c2,0,3.6,1.6,3.6,3.6c0,1.4,1.1,2.6,2.6,2.6c1.4,0,2.6-1.1,2.6-2.6
				c0-2,1.6-3.6,3.6-3.6c2,0,3.6,1.6,3.6,3.6c0,1.4,1.1,2.6,2.6,2.6c1.4,0,2.6-1.1,2.6-2.6c0-2,1.6-3.6,3.6-3.6c2,0,3.6,1.6,3.6,3.6
				c0,1.4,1.1,2.6,2.6,2.6s2.6-1.1,2.6-2.6c0-2,1.6-3.6,3.6-3.6c2,0,3.6,1.6,3.6,3.6c0,1.4,1.1,2.6,2.6,2.6c1.4,0,2.6-1.1,2.6-2.6
				c0-2,1.6-3.6,3.6-3.6s3.6,1.6,3.6,3.6c0,1.4,1.1,2.5,2.5,2.6c1.4,0,2.5-1.2,2.5-2.6c0-2,1.6-3.6,3.6-3.6c0.2,0,0.4,0,0.6,0.1l0,0
				v1.1l-0.1,0c-0.2-0.1-0.4-0.1-0.6-0.1c-1.4,0-2.5,1.1-2.6,2.5h0v0C295.3,28.5,293.7,30.2,291.7,30.2z M291.6,30.1L291.6,30.1
				C291.7,30.1,291.7,30.1,291.6,30.1c2,0,3.5-1.6,3.6-3.5h0v0c0-1.5,1.2-2.6,2.6-2.6c0.2,0,0.4,0,0.6,0.1v-0.9
				c-0.2,0-0.4-0.1-0.6-0.1c-1.9,0-3.5,1.6-3.5,3.5c0,1.5-1.2,2.6-2.6,2.6c-1.5,0-2.6-1.2-2.6-2.6c0-1.9-1.6-3.5-3.5-3.5
				c-1.9,0-3.5,1.6-3.5,3.5c0,1.5-1.2,2.6-2.6,2.6c-1.5,0-2.6-1.2-2.6-2.6c0-1.9-1.6-3.5-3.5-3.5c-1.9,0-3.5,1.6-3.5,3.5
				c0,1.5-1.2,2.6-2.6,2.6c-1.5,0-2.6-1.2-2.6-2.6c0-1.9-1.6-3.5-3.5-3.5c-1.9,0-3.5,1.6-3.5,3.5c0,1.5-1.2,2.6-2.6,2.6
				c-1.5,0-2.6-1.2-2.6-2.6c0-1.9-1.6-3.5-3.5-3.5c-1.9,0-3.5,1.6-3.5,3.5c0,1.5-1.2,2.6-2.6,2.6c-1.5,0-2.6-1.2-2.6-2.6
				c0-1.9-1.6-3.5-3.5-3.5c0,0-0.1,0-0.1,0c0,0,0,0-0.1,0v0.9c0,0,0,0,0,0c0,0,0.1,0,0.1,0c1.5,0,2.6,1.2,2.6,2.6
				c0,1.9,1.6,3.5,3.5,3.5c1.9,0,3.5-1.6,3.5-3.5c0-1.5,1.2-2.6,2.6-2.6s2.6,1.2,2.6,2.6c0,1.9,1.6,3.5,3.5,3.5
				c1.9,0,3.5-1.6,3.5-3.5c0-1.5,1.2-2.6,2.6-2.6c1.5,0,2.6,1.2,2.6,2.6c0,1.9,1.6,3.5,3.5,3.5s3.5-1.6,3.5-3.5
				c0-1.5,1.2-2.6,2.6-2.6c1.5,0,2.6,1.2,2.6,2.6c0,1.9,1.6,3.5,3.5,3.5c1.9,0,3.5-1.6,3.5-3.5c0-1.5,1.2-2.6,2.6-2.6
				s2.6,1.2,2.6,2.6v0h0C288.2,28.5,289.7,30.1,291.6,30.1L291.6,30.1z"/>
		</g>
		<g class="st3">
			<path class="st0" d="M297.8,32c0.2,0,0.4,0,0.6,0.1v-1c-0.2,0-0.4-0.1-0.6-0.1c-2,0-3.6,1.6-3.6,3.6c0,1.4-1.2,2.6-2.6,2.6
				c-1.4,0-2.6-1.2-2.6-2.6c0-2-1.6-3.6-3.6-3.6c-2,0-3.6,1.6-3.6,3.6c0,1.4-1.2,2.6-2.6,2.6c-1.4,0-2.6-1.2-2.6-2.6
				c0-2-1.6-3.6-3.6-3.6c-2,0-3.6,1.6-3.6,3.6c0,1.4-1.2,2.6-2.6,2.6c-1.4,0-2.6-1.2-2.6-2.6c0-2-1.6-3.6-3.6-3.6
				c-2,0-3.6,1.6-3.6,3.6c0,1.4-1.2,2.6-2.6,2.6c-1.4,0-2.6-1.2-2.6-2.6c0-2-1.6-3.6-3.6-3.6c-2,0-3.6,1.6-3.6,3.6
				c0,1.4-1.2,2.6-2.6,2.6c-1.4,0-2.6-1.2-2.6-2.6c0-2-1.6-3.6-3.6-3.6c-0.1,0-0.1,0-0.2,0v1c0.1,0,0.1,0,0.2,0
				c1.4,0,2.6,1.2,2.6,2.6c0,2,1.6,3.6,3.6,3.6c2,0,3.6-1.6,3.6-3.6c0-1.4,1.2-2.6,2.6-2.6c1.4,0,2.6,1.2,2.6,2.6
				c0,2,1.6,3.6,3.6,3.6c2,0,3.6-1.6,3.6-3.6c0-1.4,1.2-2.6,2.6-2.6c1.4,0,2.6,1.2,2.6,2.6c0,2,1.6,3.6,3.6,3.6c2,0,3.6-1.6,3.6-3.6
				c0-1.4,1.2-2.6,2.6-2.6c1.4,0,2.6,1.2,2.6,2.6c0,2,1.6,3.6,3.6,3.6c2,0,3.6-1.6,3.6-3.6c0-1.4,1.2-2.6,2.6-2.6
				c1.4,0,2.6,1.2,2.6,2.6h0c0,2,1.6,3.6,3.6,3.6c0,0,0,0,0,0c0,0,0,0,0,0c2,0,3.6-1.6,3.6-3.6h0C295.2,33.2,296.4,32,297.8,32z"/>
			<path class="st0" d="M291.7,38.2L291.7,38.2c-2,0-3.6-1.6-3.6-3.6v0h0c0-1.4-1.2-2.5-2.6-2.5c-1.4,0-2.6,1.1-2.6,2.6
				c0,2-1.6,3.6-3.6,3.6c-2,0-3.6-1.6-3.6-3.6c0-1.4-1.1-2.6-2.6-2.6c-1.4,0-2.6,1.1-2.6,2.6c0,2-1.6,3.6-3.6,3.6s-3.6-1.6-3.6-3.6
				c0-1.4-1.1-2.6-2.6-2.6c-1.4,0-2.6,1.1-2.6,2.6c0,2-1.6,3.6-3.6,3.6c-2,0-3.6-1.6-3.6-3.6c0-1.4-1.1-2.6-2.6-2.6
				c-1.4,0-2.6,1.1-2.6,2.6c0,2-1.6,3.6-3.6,3.6c-2,0-3.6-1.6-3.6-3.6c0-1.4-1.1-2.6-2.6-2.6c0,0-0.1,0-0.1,0c0,0-0.1,0-0.1,0
				l-0.1,0V31l0,0c0,0,0.1,0,0.1,0c0,0,0.1,0,0.1,0c2,0,3.6,1.6,3.6,3.6c0,1.4,1.1,2.6,2.6,2.6c1.4,0,2.6-1.1,2.6-2.6
				c0-2,1.6-3.6,3.6-3.6c2,0,3.6,1.6,3.6,3.6c0,1.4,1.1,2.6,2.6,2.6c1.4,0,2.6-1.1,2.6-2.6c0-2,1.6-3.6,3.6-3.6c2,0,3.6,1.6,3.6,3.6
				c0,1.4,1.1,2.6,2.6,2.6s2.6-1.1,2.6-2.6c0-2,1.6-3.6,3.6-3.6c2,0,3.6,1.6,3.6,3.6c0,1.4,1.1,2.6,2.6,2.6c1.4,0,2.6-1.1,2.6-2.6
				c0-2,1.6-3.6,3.6-3.6s3.6,1.6,3.6,3.6c0,1.4,1.1,2.5,2.5,2.6c1.4,0,2.5-1.1,2.5-2.6c0-2,1.6-3.6,3.6-3.6c0.2,0,0.4,0,0.6,0.1l0,0
				v1.1l-0.1,0c-0.2-0.1-0.4-0.1-0.6-0.1c-1.4,0-2.5,1.1-2.6,2.5h0v0C295.3,36.6,293.7,38.2,291.7,38.2z M288.1,34.7
				c0,1.9,1.6,3.5,3.5,3.5h0c1.9,0,3.5-1.6,3.5-3.5h0v0c0-1.5,1.2-2.6,2.6-2.6c0.2,0,0.4,0,0.6,0.1v-0.9c-0.2,0-0.4-0.1-0.6-0.1
				c-1.9,0-3.5,1.6-3.5,3.5c0,1.5-1.2,2.6-2.6,2.6c-1.5,0-2.6-1.2-2.6-2.6c0-1.9-1.6-3.5-3.5-3.5c-1.9,0-3.5,1.6-3.5,3.5
				c0,1.5-1.2,2.6-2.6,2.6c-1.5,0-2.6-1.2-2.6-2.6c0-1.9-1.6-3.5-3.5-3.5c-1.9,0-3.5,1.6-3.5,3.5c0,1.5-1.2,2.6-2.6,2.6
				c-1.5,0-2.6-1.2-2.6-2.6c0-1.9-1.6-3.5-3.5-3.5c-1.9,0-3.5,1.6-3.5,3.5c0,1.5-1.2,2.6-2.6,2.6c-1.5,0-2.6-1.2-2.6-2.6
				c0-1.9-1.6-3.5-3.5-3.5c-1.9,0-3.5,1.6-3.5,3.5c0,1.5-1.2,2.6-2.6,2.6c-1.5,0-2.6-1.2-2.6-2.6c0-1.9-1.6-3.5-3.5-3.5
				c0,0-0.1,0-0.1,0c0,0,0,0-0.1,0V32c0,0,0,0,0,0c0,0,0.1,0,0.1,0c1.5,0,2.6,1.2,2.6,2.6c0,1.9,1.6,3.5,3.5,3.5
				c1.9,0,3.5-1.6,3.5-3.5c0-1.5,1.2-2.6,2.6-2.6s2.6,1.2,2.6,2.6c0,1.9,1.6,3.5,3.5,3.5c1.9,0,3.5-1.6,3.5-3.5
				c0-1.5,1.2-2.6,2.6-2.6c1.5,0,2.6,1.2,2.6,2.6c0,1.9,1.6,3.5,3.5,3.5s3.5-1.6,3.5-3.5c0-1.5,1.2-2.6,2.6-2.6
				c1.5,0,2.6,1.2,2.6,2.6c0,1.9,1.6,3.5,3.5,3.5c1.9,0,3.5-1.6,3.5-3.5c0-1.5,1.2-2.6,2.6-2.6S288.2,33.2,288.1,34.7L288.1,34.7
				L288.1,34.7z"/>
		</g>
		<g class="st4">
			<path class="st0" d="M235.9,7.8c0.1,0,0.1,0,0.2,0c1.4,0,2.6,1.2,2.6,2.6c0,2,1.6,3.6,3.6,3.6c2,0,3.6-1.6,3.6-3.6
				c0-1.4,1.2-2.6,2.6-2.6c1.4,0,2.6,1.2,2.6,2.6c0,2,1.6,3.6,3.6,3.6c2,0,3.6-1.6,3.6-3.6c0-1.4,1.2-2.6,2.6-2.6
				c1.4,0,2.6,1.2,2.6,2.6c0,2,1.6,3.6,3.6,3.6c2,0,3.6-1.6,3.6-3.6c0-1.4,1.2-2.6,2.6-2.6c1.4,0,2.6,1.2,2.6,2.6
				c0,2,1.6,3.6,3.6,3.6c2,0,3.6-1.6,3.6-3.6c0-1.4,1.2-2.6,2.6-2.6c1.4,0,2.6,1.2,2.6,2.6h0c0,2,1.6,3.6,3.6,3.6c0,0,0,0,0,0
				c0,0,0,0,0,0c2,0,3.6-1.6,3.6-3.6h0c0-1.4,1.2-2.6,2.6-2.6c0.2,0,0.4,0,0.6,0.1v-1c-0.2,0-0.4-0.1-0.6-0.1c-2,0-3.6,1.6-3.6,3.6
				c0,1.4-1.2,2.6-2.6,2.6c-1.4,0-2.6-1.2-2.6-2.6c0-2-1.6-3.6-3.6-3.6c-2,0-3.6,1.6-3.6,3.6c0,1.4-1.2,2.6-2.6,2.6
				c-1.4,0-2.6-1.2-2.6-2.6c0-2-1.6-3.6-3.6-3.6c-2,0-3.6,1.6-3.6,3.6c0,1.4-1.2,2.6-2.6,2.6c-1.4,0-2.6-1.2-2.6-2.6
				c0-2-1.6-3.6-3.6-3.6c-2,0-3.6,1.6-3.6,3.6c0,1.4-1.2,2.6-2.6,2.6c-1.4,0-2.6-1.2-2.6-2.6c0-2-1.6-3.6-3.6-3.6
				c-2,0-3.6,1.6-3.6,3.6c0,1.4-1.2,2.6-2.6,2.6c-1.4,0-2.6-1.2-2.6-2.6c0-2-1.6-3.6-3.6-3.6c-0.1,0-0.1,0-0.2,0V7.8z"/>
			<path class="st0" d="M291.7,14L291.7,14c-2,0-3.6-1.6-3.6-3.6v0h0c0-1.4-1.2-2.5-2.6-2.5c-1.4,0-2.6,1.1-2.6,2.6
				c0,2-1.6,3.6-3.6,3.6c-2,0-3.6-1.6-3.6-3.6c0-1.4-1.1-2.6-2.6-2.6c-1.4,0-2.6,1.1-2.6,2.6c0,2-1.6,3.6-3.6,3.6s-3.6-1.6-3.6-3.6
				c0-1.4-1.1-2.6-2.6-2.6c-1.4,0-2.6,1.1-2.6,2.6c0,2-1.6,3.6-3.6,3.6c-2,0-3.6-1.6-3.6-3.6c0-1.4-1.1-2.6-2.6-2.6
				c-1.4,0-2.6,1.1-2.6,2.6c0,2-1.6,3.6-3.6,3.6c-2,0-3.6-1.6-3.6-3.6c0-1.4-1.1-2.6-2.6-2.6c0,0-0.1,0-0.1,0c0,0-0.1,0-0.1,0
				l-0.1,0V6.8l0,0c0,0,0.1,0,0.1,0c0,0,0.1,0,0.1,0c2,0,3.6,1.6,3.6,3.6c0,1.4,1.1,2.6,2.6,2.6c1.4,0,2.6-1.1,2.6-2.6
				c0-2,1.6-3.6,3.6-3.6c2,0,3.6,1.6,3.6,3.6c0,1.4,1.1,2.6,2.6,2.6c1.4,0,2.6-1.1,2.6-2.6c0-2,1.6-3.6,3.6-3.6c2,0,3.6,1.6,3.6,3.6
				c0,1.4,1.1,2.6,2.6,2.6s2.6-1.1,2.6-2.6c0-2,1.6-3.6,3.6-3.6c2,0,3.6,1.6,3.6,3.6c0,1.4,1.1,2.6,2.6,2.6c1.4,0,2.6-1.1,2.6-2.6
				c0-2,1.6-3.6,3.6-3.6s3.6,1.6,3.6,3.6c0,1.4,1.1,2.5,2.5,2.6c1.4,0,2.5-1.2,2.5-2.6c0-2,1.6-3.6,3.6-3.6c0.2,0,0.4,0,0.6,0.1l0,0
				v1.1l-0.1,0c-0.2-0.1-0.4-0.1-0.6-0.1c-1.4,0-2.5,1.1-2.6,2.5h0v0C295.3,12.4,293.7,14,291.7,14z M288.1,10.4
				c0,1.9,1.6,3.5,3.5,3.5h0c1.9,0,3.5-1.6,3.5-3.5h0v0c0-1.5,1.2-2.6,2.6-2.6c0.2,0,0.4,0,0.6,0.1V6.9c-0.2,0-0.4-0.1-0.6-0.1
				c-1.9,0-3.5,1.6-3.5,3.5c0,1.5-1.2,2.6-2.6,2.6c-1.5,0-2.6-1.2-2.6-2.6c0-1.9-1.6-3.5-3.5-3.5c-1.9,0-3.5,1.6-3.5,3.5
				c0,1.5-1.2,2.6-2.6,2.6c-1.5,0-2.6-1.2-2.6-2.6c0-1.9-1.6-3.5-3.5-3.5c-1.9,0-3.5,1.6-3.5,3.5c0,1.5-1.2,2.6-2.6,2.6
				c-1.5,0-2.6-1.2-2.6-2.6c0-1.9-1.6-3.5-3.5-3.5c-1.9,0-3.5,1.6-3.5,3.5c0,1.5-1.2,2.6-2.6,2.6c-1.5,0-2.6-1.2-2.6-2.6
				c0-1.9-1.6-3.5-3.5-3.5c-1.9,0-3.5,1.6-3.5,3.5c0,1.5-1.2,2.6-2.6,2.6c-1.5,0-2.6-1.2-2.6-2.6c0-1.9-1.6-3.5-3.5-3.5
				c0,0-0.1,0-0.1,0c0,0,0,0,0,0v0.9c0,0,0,0,0,0c0,0,0.1,0,0.1,0c1.5,0,2.6,1.2,2.6,2.6c0,1.9,1.6,3.5,3.5,3.5
				c1.9,0,3.5-1.6,3.5-3.5c0-1.5,1.2-2.6,2.6-2.6s2.6,1.2,2.6,2.6c0,1.9,1.6,3.5,3.5,3.5c1.9,0,3.5-1.6,3.5-3.5
				c0-1.5,1.2-2.6,2.6-2.6c1.5,0,2.6,1.2,2.6,2.6c0,1.9,1.6,3.5,3.5,3.5s3.5-1.6,3.5-3.5c0-1.5,1.2-2.6,2.6-2.6
				c1.5,0,2.6,1.2,2.6,2.6c0,1.9,1.6,3.5,3.5,3.5c1.9,0,3.5-1.6,3.5-3.5c0-1.5,1.2-2.6,2.6-2.6S288.2,8.9,288.1,10.4L288.1,10.4
				L288.1,10.4z"/>
		</g>
		<g class="st5">
			<path class="st0" d="M297.8,40.1c0.2,0,0.4,0,0.6,0.1v-1c-0.2,0-0.4-0.1-0.6-0.1c-2,0-3.6,1.6-3.6,3.6c0,1.4-1.2,2.6-2.6,2.6
				c-1.4,0-2.6-1.2-2.6-2.6c0-2-1.6-3.6-3.6-3.6c-2,0-3.6,1.6-3.6,3.6c0,1.4-1.2,2.6-2.6,2.6c-1.4,0-2.6-1.2-2.6-2.6
				c0-2-1.6-3.6-3.6-3.6c-2,0-3.6,1.6-3.6,3.6c0,1.4-1.2,2.6-2.6,2.6c-1.4,0-2.6-1.2-2.6-2.6c0-2-1.6-3.6-3.6-3.6
				c-2,0-3.6,1.6-3.6,3.6c0,1.4-1.2,2.6-2.6,2.6c-1.4,0-2.6-1.2-2.6-2.6c0-2-1.6-3.6-3.6-3.6c-2,0-3.6,1.6-3.6,3.6
				c0,1.4-1.2,2.6-2.6,2.6c-1.4,0-2.6-1.2-2.6-2.6c0-2-1.6-3.6-3.6-3.6c-0.1,0-0.1,0-0.2,0v1c0.1,0,0.1,0,0.2,0
				c1.4,0,2.6,1.2,2.6,2.6c0,2,1.6,3.6,3.6,3.6c2,0,3.6-1.6,3.6-3.6c0-1.4,1.2-2.6,2.6-2.6c1.4,0,2.6,1.2,2.6,2.6
				c0,2,1.6,3.6,3.6,3.6c2,0,3.6-1.6,3.6-3.6c0-1.4,1.2-2.6,2.6-2.6c1.4,0,2.6,1.2,2.6,2.6c0,2,1.6,3.6,3.6,3.6c2,0,3.6-1.6,3.6-3.6
				c0-1.4,1.2-2.6,2.6-2.6c1.4,0,2.6,1.2,2.6,2.6c0,2,1.6,3.6,3.6,3.6c2,0,3.6-1.6,3.6-3.6c0-1.4,1.2-2.6,2.6-2.6
				c1.4,0,2.6,1.2,2.6,2.6h0c0,2,1.6,3.6,3.6,3.6c0,0,0,0,0,0c0,0,0,0,0,0c2,0,3.6-1.6,3.6-3.6h0C295.2,41.3,296.4,40.1,297.8,40.1z
				"/>
			<path class="st0" d="M291.7,46.3L291.7,46.3c-2,0-3.6-1.6-3.6-3.6v0h0c0-1.4-1.2-2.5-2.6-2.5c-1.4,0-2.6,1.1-2.6,2.6
				c0,2-1.6,3.6-3.6,3.6c-2,0-3.6-1.6-3.6-3.6c0-1.4-1.1-2.6-2.6-2.6c-1.4,0-2.6,1.1-2.6,2.6c0,2-1.6,3.6-3.6,3.6s-3.6-1.6-3.6-3.6
				c0-1.4-1.1-2.6-2.6-2.6c-1.4,0-2.6,1.1-2.6,2.6c0,2-1.6,3.6-3.6,3.6c-2,0-3.6-1.6-3.6-3.6c0-1.4-1.1-2.6-2.6-2.6
				c-1.4,0-2.6,1.1-2.6,2.6c0,2-1.6,3.6-3.6,3.6c-2,0-3.6-1.6-3.6-3.6c0-1.4-1.1-2.6-2.6-2.6c0,0-0.1,0-0.1,0c0,0-0.1,0-0.1,0
				l-0.1,0v-1.1l0,0c0,0,0.1,0,0.1,0c0,0,0.1,0,0.1,0c2,0,3.6,1.6,3.6,3.6c0,1.4,1.1,2.6,2.6,2.6c1.4,0,2.6-1.1,2.6-2.6
				c0-2,1.6-3.6,3.6-3.6c2,0,3.6,1.6,3.6,3.6c0,1.4,1.1,2.6,2.6,2.6c1.4,0,2.6-1.1,2.6-2.6c0-2,1.6-3.6,3.6-3.6c2,0,3.6,1.6,3.6,3.6
				c0,1.4,1.1,2.6,2.6,2.6s2.6-1.1,2.6-2.6c0-2,1.6-3.6,3.6-3.6c2,0,3.6,1.6,3.6,3.6c0,1.4,1.1,2.6,2.6,2.6c1.4,0,2.6-1.1,2.6-2.6
				c0-2,1.6-3.6,3.6-3.6s3.6,1.6,3.6,3.6c0,1.4,1.1,2.5,2.5,2.6c1.4,0,2.5-1.2,2.5-2.6c0-2,1.6-3.6,3.6-3.6c0.2,0,0.4,0,0.6,0.1l0,0
				v1.1l-0.1,0c-0.2-0.1-0.4-0.1-0.6-0.1c-1.4,0-2.5,1.1-2.6,2.5h0v0C295.3,44.7,293.7,46.3,291.7,46.3z M288.1,42.7
				c0,1.9,1.6,3.5,3.5,3.5c0,0,0,0,0,0c1.9,0,3.5-1.6,3.5-3.5h0v0c0-1.5,1.2-2.6,2.6-2.6c0.2,0,0.4,0,0.6,0.1v-0.9
				c-0.2,0-0.4-0.1-0.6-0.1c-1.9,0-3.5,1.6-3.5,3.5c0,1.5-1.2,2.6-2.6,2.6c-1.5,0-2.6-1.2-2.6-2.6c0-1.9-1.6-3.5-3.5-3.5
				c-1.9,0-3.5,1.6-3.5,3.5c0,1.5-1.2,2.6-2.6,2.6c-1.5,0-2.6-1.2-2.6-2.6c0-1.9-1.6-3.5-3.5-3.5c-1.9,0-3.5,1.6-3.5,3.5
				c0,1.5-1.2,2.6-2.6,2.6c-1.5,0-2.6-1.2-2.6-2.6c0-1.9-1.6-3.5-3.5-3.5c-1.9,0-3.5,1.6-3.5,3.5c0,1.5-1.2,2.6-2.6,2.6
				c-1.5,0-2.6-1.2-2.6-2.6c0-1.9-1.6-3.5-3.5-3.5c-1.9,0-3.5,1.6-3.5,3.5c0,1.5-1.2,2.6-2.6,2.6c-1.5,0-2.6-1.2-2.6-2.6
				c0-1.9-1.6-3.5-3.5-3.5c0,0-0.1,0-0.1,0c0,0,0,0-0.1,0v0.9c0,0,0,0,0,0c0,0,0.1,0,0.1,0c1.5,0,2.6,1.2,2.6,2.6
				c0,1.9,1.6,3.5,3.5,3.5c1.9,0,3.5-1.6,3.5-3.5c0-1.5,1.2-2.6,2.6-2.6s2.6,1.2,2.6,2.6c0,1.9,1.6,3.5,3.5,3.5
				c1.9,0,3.5-1.6,3.5-3.5c0-1.5,1.2-2.6,2.6-2.6c1.5,0,2.6,1.2,2.6,2.6c0,1.9,1.6,3.5,3.5,3.5s3.5-1.6,3.5-3.5
				c0-1.5,1.2-2.6,2.6-2.6c1.5,0,2.6,1.2,2.6,2.6c0,1.9,1.6,3.5,3.5,3.5c1.9,0,3.5-1.6,3.5-3.5c0-1.5,1.2-2.6,2.6-2.6
				S288.2,41.2,288.1,42.7L288.1,42.7L288.1,42.7z"/>
		</g>
	</g>
	<g>
		<g>
			<path class="st0" d="M11.9,14.5c0,0.5-0.1,0.9-0.3,1.3c-0.2,0.4-0.4,0.7-0.8,1c-0.3,0.3-0.7,0.5-1.1,0.6s-0.9,0.2-1.3,0.2H2.8
				V5.7h5.9c0.4,0,0.8,0.1,1.1,0.3c0.3,0.2,0.6,0.4,0.8,0.7c0.2,0.3,0.4,0.6,0.5,1c0.1,0.4,0.2,0.7,0.2,1.1c0,0.6-0.1,1.1-0.4,1.6
				c-0.3,0.5-0.7,0.9-1.3,1.1c0.7,0.2,1.2,0.6,1.6,1.1C11.7,13.1,11.9,13.8,11.9,14.5z M4.3,7V11h3.8c0.3,0,0.5-0.1,0.7-0.2
				c0.2-0.1,0.4-0.2,0.6-0.4c0.2-0.2,0.3-0.4,0.4-0.6C9.9,9.5,9.9,9.3,9.9,9c0-0.3,0-0.5-0.1-0.8C9.7,8,9.6,7.8,9.4,7.6
				C9.3,7.4,9.1,7.3,8.9,7.2C8.7,7.1,8.4,7,8.2,7H4.3z M10.4,14.2c0-0.3,0-0.5-0.1-0.8c-0.1-0.3-0.2-0.5-0.4-0.7
				c-0.2-0.2-0.4-0.3-0.6-0.5c-0.2-0.1-0.5-0.2-0.7-0.2H4.3v4.1h4.1c0.3,0,0.5-0.1,0.8-0.2c0.2-0.1,0.4-0.3,0.6-0.4
				c0.2-0.2,0.3-0.4,0.4-0.6C10.3,14.8,10.4,14.5,10.4,14.2z"/>
		</g>
		<g>
			<path class="st0" d="M25.7,17.6V5.7h5.1c0.5,0,1,0.1,1.4,0.3c0.4,0.2,0.8,0.5,1.1,0.9c0.3,0.4,0.6,0.8,0.7,1.2
				c0.2,0.5,0.3,0.9,0.3,1.4c0,0.4-0.1,0.8-0.2,1.2c-0.1,0.4-0.3,0.7-0.5,1c-0.2,0.3-0.5,0.6-0.8,0.8c-0.3,0.2-0.6,0.4-1,0.5
				l2.9,4.5H33l-2.7-4.2h-3.1v4.2H25.7z M27.2,12h3.6c0.3,0,0.6-0.1,0.8-0.2c0.3-0.1,0.5-0.3,0.6-0.5c0.2-0.2,0.3-0.5,0.4-0.8
				c0.1-0.3,0.1-0.6,0.1-0.9c0-0.3-0.1-0.6-0.2-0.9c-0.1-0.3-0.3-0.6-0.5-0.8c-0.2-0.2-0.4-0.4-0.7-0.5c-0.3-0.1-0.5-0.2-0.8-0.2
				h-3.5V12z"/>
		</g>
		<g>
			<path class="st0" d="M53.1,17.6c-0.8,0-1.6-0.2-2.3-0.5c-0.7-0.3-1.3-0.8-1.8-1.3c-0.5-0.6-0.9-1.2-1.1-1.9
				c-0.3-0.7-0.4-1.5-0.4-2.2c0-0.8,0.1-1.5,0.4-2.3c0.3-0.7,0.7-1.4,1.2-1.9c0.5-0.5,1.1-1,1.8-1.3c0.7-0.3,1.4-0.5,2.2-0.5
				c0.8,0,1.6,0.2,2.3,0.5c0.7,0.4,1.3,0.8,1.7,1.4c0.5,0.6,0.9,1.2,1.1,1.9c0.3,0.7,0.4,1.4,0.4,2.2c0,0.8-0.1,1.5-0.4,2.3
				c-0.3,0.7-0.7,1.4-1.2,1.9c-0.5,0.5-1.1,1-1.8,1.3C54.6,17.5,53.9,17.6,53.1,17.6z M49,11.6c0,0.6,0.1,1.2,0.3,1.7
				c0.2,0.6,0.5,1.1,0.8,1.5c0.4,0.4,0.8,0.8,1.3,1c0.5,0.3,1.1,0.4,1.7,0.4c0.6,0,1.2-0.1,1.7-0.4c0.5-0.3,0.9-0.6,1.3-1.1
				c0.4-0.4,0.6-0.9,0.8-1.5c0.2-0.6,0.3-1.1,0.3-1.7c0-0.6-0.1-1.2-0.3-1.7c-0.2-0.6-0.5-1.1-0.8-1.5c-0.4-0.4-0.8-0.8-1.3-1
				c-0.5-0.3-1-0.4-1.6-0.4c-0.6,0-1.2,0.1-1.7,0.4c-0.5,0.3-0.9,0.6-1.3,1.1c-0.4,0.4-0.6,0.9-0.8,1.5C49.1,10.5,49,11.1,49,11.6z"
				/>
		</g>
		<g>
			<path class="st0" d="M75.6,5.7h1.3l4.8,11.8h-1.6l-1.4-3.5h-5l-1.4,3.5h-1.6L75.6,5.7z M78.4,12.9l-2.1-5.5L74,12.9H78.4z"/>
		</g>
		<g>
			<path class="st0" d="M94.9,17.6V5.7H99c0.9,0,1.8,0.2,2.5,0.5c0.7,0.3,1.3,0.7,1.8,1.3c0.5,0.5,0.8,1.2,1.1,1.9
				c0.2,0.7,0.4,1.5,0.4,2.3c0,0.9-0.1,1.7-0.4,2.4c-0.3,0.7-0.7,1.3-1.2,1.9c-0.5,0.5-1.1,0.9-1.8,1.2c-0.7,0.3-1.5,0.4-2.4,0.4
				H94.9z M103.2,11.6c0-0.7-0.1-1.3-0.3-1.8c-0.2-0.6-0.5-1-0.8-1.4c-0.4-0.4-0.8-0.7-1.3-0.9c-0.5-0.2-1.1-0.3-1.8-0.3h-2.6v9.2
				H99c0.7,0,1.3-0.1,1.8-0.4c0.5-0.2,1-0.6,1.3-1c0.4-0.4,0.6-0.9,0.8-1.5C103.1,12.9,103.2,12.3,103.2,11.6z"/>
		</g>
		<g>
			<path class="st0" d="M125.5,8.2c-0.1-0.2-0.3-0.3-0.5-0.5c-0.2-0.1-0.5-0.3-0.7-0.4c-0.3-0.1-0.6-0.2-0.9-0.3
				C123,7,122.6,7,122.3,7c-0.9,0-1.6,0.2-2,0.5c-0.4,0.3-0.6,0.8-0.6,1.4c0,0.3,0.1,0.6,0.2,0.8c0.1,0.2,0.3,0.4,0.6,0.5
				c0.3,0.2,0.6,0.3,1,0.4c0.4,0.1,0.8,0.2,1.4,0.4c0.6,0.1,1.2,0.3,1.7,0.5c0.5,0.2,0.9,0.4,1.3,0.6c0.4,0.3,0.6,0.6,0.8,0.9
				c0.2,0.4,0.3,0.8,0.3,1.3c0,0.6-0.1,1.1-0.3,1.5c-0.2,0.4-0.5,0.8-0.9,1c-0.4,0.3-0.8,0.5-1.4,0.6c-0.5,0.1-1.1,0.2-1.7,0.2
				c-0.9,0-1.8-0.1-2.6-0.4c-0.8-0.3-1.6-0.7-2.2-1.2l0.7-1.3c0.2,0.2,0.4,0.4,0.7,0.6c0.3,0.2,0.6,0.4,1,0.5
				c0.4,0.2,0.7,0.3,1.2,0.4c0.4,0.1,0.9,0.1,1.3,0.1c0.8,0,1.5-0.2,2-0.5c0.5-0.3,0.7-0.7,0.7-1.4c0-0.3-0.1-0.6-0.2-0.8
				c-0.2-0.2-0.4-0.4-0.7-0.6c-0.3-0.2-0.6-0.3-1.1-0.4c-0.4-0.1-0.9-0.3-1.5-0.4c-0.6-0.1-1.1-0.3-1.6-0.5
				c-0.5-0.2-0.8-0.4-1.1-0.6c-0.3-0.2-0.5-0.5-0.7-0.8c-0.2-0.3-0.2-0.7-0.2-1.2c0-0.6,0.1-1.1,0.3-1.5c0.2-0.4,0.5-0.8,0.9-1.1
				c0.4-0.3,0.8-0.5,1.4-0.7c0.5-0.2,1.1-0.2,1.7-0.2c0.8,0,1.5,0.1,2.2,0.4c0.6,0.2,1.2,0.6,1.7,1L125.5,8.2z"/>
		</g>
		<g>
			<path class="st0" d="M148.9,7.1h-4.1v10.5h-1.5V7.1h-4.1V5.7h9.7V7.1z"/>
		</g>
		<g>
			<path class="st0" d="M166.7,17.6c-0.8,0-1.6-0.2-2.3-0.5c-0.7-0.3-1.3-0.8-1.8-1.3c-0.5-0.6-0.9-1.2-1.1-1.9
				c-0.3-0.7-0.4-1.5-0.4-2.2c0-0.8,0.1-1.5,0.4-2.3c0.3-0.7,0.7-1.4,1.2-1.9c0.5-0.5,1.1-1,1.8-1.3c0.7-0.3,1.4-0.5,2.2-0.5
				c0.8,0,1.6,0.2,2.3,0.5c0.7,0.4,1.3,0.8,1.7,1.4c0.5,0.6,0.9,1.2,1.1,1.9c0.3,0.7,0.4,1.4,0.4,2.2c0,0.8-0.1,1.5-0.4,2.3
				c-0.3,0.7-0.7,1.4-1.2,1.9c-0.5,0.5-1.1,1-1.8,1.3C168.3,17.5,167.5,17.6,166.7,17.6z M162.7,11.6c0,0.6,0.1,1.2,0.3,1.7
				c0.2,0.6,0.5,1.1,0.8,1.5c0.4,0.4,0.8,0.8,1.3,1c0.5,0.3,1.1,0.4,1.7,0.4c0.6,0,1.2-0.1,1.7-0.4c0.5-0.3,0.9-0.6,1.3-1.1
				c0.4-0.4,0.6-0.9,0.8-1.5c0.2-0.6,0.3-1.1,0.3-1.7c0-0.6-0.1-1.2-0.3-1.7c-0.2-0.6-0.5-1.1-0.8-1.5c-0.4-0.4-0.8-0.8-1.3-1
				c-0.5-0.3-1-0.4-1.6-0.4c-0.6,0-1.2,0.1-1.7,0.4c-0.5,0.3-0.9,0.6-1.3,1.1c-0.4,0.4-0.6,0.9-0.8,1.5
				C162.8,10.5,162.7,11.1,162.7,11.6z"/>
		</g>
		<g>
			<path class="st0" d="M187.5,8.5v9H186V5.7h1.2l7.3,9.2V5.7h1.5v11.8h-1.3L187.5,8.5z"/>
		</g>
		<g>
			<path class="st0" d="M218.6,16.2v1.3h-8V5.7h7.9v1.3H212v3.8h5.6v1.2H212v4.1H218.6z"/>
		</g>
	</g>
</g>
</svg>
